----------BP LEARN STARTED----------
***Initial weights***
	W1
	-0.090979 	+0.079921 
	+0.031491 	+0.014781 
	+0.032731 	+0.033515 
	-0.070359 	+0.013887 
	-0.007325 	+0.066702 
	W2
	-0.004240 	-0.038352 	+0.034866 	+0.018470 	-0.068276 	+0.088286 
	+0.066101 	-0.060587 	-0.034489 	-0.060732 	-0.052175 	+0.059986 
	-0.084452 	+0.008623 	+0.096880 	-0.023300 	-0.042044 	+0.082802 
	+0.064902 	+0.090912 	-0.012322 	-0.038647 	+0.002438 	-0.029739 
	-0.092522 	+0.054385 	+0.081922 	+0.080816 	+0.034748 	+0.092300 
	W3
	-0.068545 	+0.023559 	+0.005448 	-0.096150 	+0.079612 	-0.086880 
***Learning rate***
	0.01
***Momentum Update (forgetting factor)***
	0.5
***Stopping Criteria = max. learn steps OR rms train and test error < tolerance***
	Max learning steps
	6000
	Error Tolerance
	0.1
***Initial RMS Error (training) ***
	1.700519
***Initial RMS Error (test) ***
	1.730192
***Performance indicators while running BP algorithm***
	iter: 60, training rms error:1.596258, test rms error:1.627797
	iter: 120, training rms error:1.582479, test rms error:1.614236
	iter: 180, training rms error:1.582036, test rms error:1.613766
	iter: 240, training rms error:1.596193, test rms error:1.627581
	iter: 300, training rms error:1.574693, test rms error:1.606442
	iter: 360, training rms error:1.577189, test rms error:1.608843
	iter: 420, training rms error:1.569031, test rms error:1.600784
	iter: 480, training rms error:1.564802, test rms error:1.596565
	iter: 540, training rms error:1.567914, test rms error:1.599525
	iter: 600, training rms error:1.569535, test rms error:1.601030
	iter: 660, training rms error:1.549914, test rms error:1.581678
	iter: 720, training rms error:1.544609, test rms error:1.576347
	iter: 780, training rms error:1.536541, test rms error:1.568294
	iter: 840, training rms error:1.539855, test rms error:1.571421
	iter: 900, training rms error:1.521801, test rms error:1.553538
	iter: 960, training rms error:1.511412, test rms error:1.543145
	iter: 1020, training rms error:1.501114, test rms error:1.532770
	iter: 1080, training rms error:1.482706, test rms error:1.514365
	iter: 1140, training rms error:1.477116, test rms error:1.508655
	iter: 1200, training rms error:1.449308, test rms error:1.480932
	iter: 1260, training rms error:1.428429, test rms error:1.459932
	iter: 1320, training rms error:1.400430, test rms error:1.431932
	iter: 1380, training rms error:1.382803, test rms error:1.413999
	iter: 1440, training rms error:1.339482, test rms error:1.370379
	iter: 1500, training rms error:1.304088, test rms error:1.334864
	iter: 1560, training rms error:1.238149, test rms error:1.268917
	iter: 1620, training rms error:1.188118, test rms error:1.218505
	iter: 1680, training rms error:1.124954, test rms error:1.154730
	iter: 1740, training rms error:1.068360, test rms error:1.097598
	iter: 1800, training rms error:1.027708, test rms error:1.055997
	iter: 1860, training rms error:0.982599, test rms error:1.010306
	iter: 1920, training rms error:0.927096, test rms error:0.952708
	iter: 1980, training rms error:0.878670, test rms error:0.902609
	iter: 2040, training rms error:0.855148, test rms error:0.878312
	iter: 2100, training rms error:0.836540, test rms error:0.856922
	iter: 2160, training rms error:0.828300, test rms error:0.848022
	iter: 2220, training rms error:0.809542, test rms error:0.828470
	iter: 2280, training rms error:0.803586, test rms error:0.821491
	iter: 2340, training rms error:0.805528, test rms error:0.823649
	iter: 2400, training rms error:0.798657, test rms error:0.815204
	iter: 2460, training rms error:0.799857, test rms error:0.815362
	iter: 2520, training rms error:0.800126, test rms error:0.813596
	iter: 2580, training rms error:0.805309, test rms error:0.820731
	iter: 2640, training rms error:0.798167, test rms error:0.814504
	iter: 2700, training rms error:0.797333, test rms error:0.813819
	iter: 2760, training rms error:0.797747, test rms error:0.814138
	iter: 2820, training rms error:0.796220, test rms error:0.811179
	iter: 2880, training rms error:0.797628, test rms error:0.811896
	iter: 2940, training rms error:0.794765, test rms error:0.809109
	iter: 3000, training rms error:0.796530, test rms error:0.811795
	iter: 3060, training rms error:0.796191, test rms error:0.812599
	iter: 3120, training rms error:0.795443, test rms error:0.811146
	iter: 3180, training rms error:0.795193, test rms error:0.810786
	iter: 3240, training rms error:0.815355, test rms error:0.828634
	iter: 3300, training rms error:0.796504, test rms error:0.810994
	iter: 3360, training rms error:0.796995, test rms error:0.812662
	iter: 3420, training rms error:0.795975, test rms error:0.810629
	iter: 3480, training rms error:0.803737, test rms error:0.817120
	iter: 3540, training rms error:0.795044, test rms error:0.807984
	iter: 3600, training rms error:0.804690, test rms error:0.820097
	iter: 3660, training rms error:0.793081, test rms error:0.808893
	iter: 3720, training rms error:0.795052, test rms error:0.811584
	iter: 3780, training rms error:0.800724, test rms error:0.814880
	iter: 3840, training rms error:0.791697, test rms error:0.805965
	iter: 3900, training rms error:0.793308, test rms error:0.807792
	iter: 3960, training rms error:0.790912, test rms error:0.805818
	iter: 4020, training rms error:0.791323, test rms error:0.805897
	iter: 4080, training rms error:0.803130, test rms error:0.818717
	iter: 4140, training rms error:0.808678, test rms error:0.825145
	iter: 4200, training rms error:0.806969, test rms error:0.821773
	iter: 4260, training rms error:0.791323, test rms error:0.805789
	iter: 4320, training rms error:0.798769, test rms error:0.814581
	iter: 4380, training rms error:0.797197, test rms error:0.812067
	iter: 4440, training rms error:0.810098, test rms error:0.822539
	iter: 4500, training rms error:0.789942, test rms error:0.804060
	iter: 4560, training rms error:0.788693, test rms error:0.803556
	iter: 4620, training rms error:0.826207, test rms error:0.841388
	iter: 4680, training rms error:0.794709, test rms error:0.810146
	iter: 4740, training rms error:0.812171, test rms error:0.825939
	iter: 4800, training rms error:0.788538, test rms error:0.802928
	iter: 4860, training rms error:0.787635, test rms error:0.802655
	iter: 4920, training rms error:0.787397, test rms error:0.802634
	iter: 4980, training rms error:0.787512, test rms error:0.803030
	iter: 5040, training rms error:0.816018, test rms error:0.828037
	iter: 5100, training rms error:0.787408, test rms error:0.801554
	iter: 5160, training rms error:0.788777, test rms error:0.803206
	iter: 5220, training rms error:0.790075, test rms error:0.805852
	iter: 5280, training rms error:0.789303, test rms error:0.803221
	iter: 5340, training rms error:0.789192, test rms error:0.804246
	iter: 5400, training rms error:0.791873, test rms error:0.807739
	iter: 5460, training rms error:0.790914, test rms error:0.806158
	iter: 5520, training rms error:0.786013, test rms error:0.800483
	iter: 5580, training rms error:0.784988, test rms error:0.800561
	iter: 5640, training rms error:0.785098, test rms error:0.801009
	iter: 5700, training rms error:0.790930, test rms error:0.807165
	iter: 5760, training rms error:0.793797, test rms error:0.809706
	iter: 5820, training rms error:0.783955, test rms error:0.799443
	iter: 5880, training rms error:0.792953, test rms error:0.806794
	iter: 5940, training rms error:0.804284, test rms error:0.818568
	iter: 6000, training rms error:0.788821, test rms error:0.804793
***After training with mu = 0.01***
	W1
	-0.094200 	+0.062465 
	+0.057744 	+0.008676 
	+0.118738 	-0.052672 
	-0.175538 	+0.216531 
	-0.104062 	+0.367707 
	W2
	-0.003672 	-0.038218 	+0.062403 	+0.026068 	-0.061341 	+0.085178 
	+0.064694 	-0.074258 	-0.036052 	-0.066945 	-0.061693 	+0.052199 
	-0.200484 	+0.052674 	+0.013775 	-0.011071 	-0.033633 	+0.196288 
	+0.030964 	+0.167795 	-0.018192 	-0.042704 	-0.051619 	-0.012897 
	-0.129526 	+0.075485 	+0.097292 	+0.296475 	-0.034843 	+0.241397 
	W3
	+0.026329 	-0.060445 	-0.038705 	-0.389219 	+0.071906 	-0.280657 
	rms error on training data: 0.804284
	rms error on test data: 0.818568
****Total learning steps when training stopped***
 	6000
----------BP LEARN STARTED----------
***Initial weights***
	W1
	+0.073657 	+0.074082 
	-0.026193 	+0.059329 
	-0.013808 	+0.066646 
	+0.088911 	-0.042560 
	-0.020802 	+0.083214 
	W2
	-0.041667 	+0.088620 	-0.073257 	-0.004819 	+0.070856 	+0.095995 
	+0.001781 	-0.055885 	+0.083771 	-0.081170 	-0.080111 	-0.024908 
	-0.030403 	-0.041003 	+0.023530 	-0.069463 	+0.030114 	+0.099486 
	-0.096164 	+0.034684 	-0.097327 	+0.059948 	-0.052608 	-0.072353 
	+0.040438 	+0.008522 	+0.044842 	+0.001403 	-0.093455 	+0.011874 
	W3
	+0.099554 	+0.042037 	+0.090761 	+0.060864 	-0.077921 	+0.083068 
***Learning rate***
	0.05
***Momentum Update (forgetting factor)***
	0.5
***Stopping Criteria = max. learn steps OR rms train and test error < tolerance***
	Max learning steps
	6000
	Error Tolerance
	0.1
***Initial RMS Error (training) ***
	1.866328
***Initial RMS Error (test) ***
	1.893360
***Performance indicators while running BP algorithm***
	iter: 60, training rms error:1.585231, test rms error:1.616739
	iter: 120, training rms error:2.143147, test rms error:2.166286
	iter: 180, training rms error:1.729252, test rms error:1.757149
	iter: 240, training rms error:1.669767, test rms error:1.696944
	iter: 300, training rms error:1.333483, test rms error:1.364814
	iter: 360, training rms error:1.070392, test rms error:1.099546
	iter: 420, training rms error:0.839029, test rms error:0.860908
	iter: 480, training rms error:0.842485, test rms error:0.858449
	iter: 540, training rms error:0.835040, test rms error:0.849603
	iter: 600, training rms error:0.795895, test rms error:0.807271
	iter: 660, training rms error:0.825531, test rms error:0.843708
	iter: 720, training rms error:0.821432, test rms error:0.842578
	iter: 780, training rms error:0.799061, test rms error:0.809477
	iter: 840, training rms error:0.933609, test rms error:0.944381
	iter: 900, training rms error:1.017883, test rms error:1.028121
	iter: 960, training rms error:0.845993, test rms error:0.867419
	iter: 1020, training rms error:0.799160, test rms error:0.810753
	iter: 1080, training rms error:0.936742, test rms error:0.947499
	iter: 1140, training rms error:1.009855, test rms error:1.025504
	iter: 1200, training rms error:0.970184, test rms error:0.982109
	iter: 1260, training rms error:1.181008, test rms error:1.195805
	iter: 1320, training rms error:1.102423, test rms error:1.111706
	iter: 1380, training rms error:1.155540, test rms error:1.165817
	iter: 1440, training rms error:0.980660, test rms error:0.995677
	iter: 1500, training rms error:0.956345, test rms error:0.970765
	iter: 1560, training rms error:0.825067, test rms error:0.841080
	iter: 1620, training rms error:0.788032, test rms error:0.803012
	iter: 1680, training rms error:1.177677, test rms error:1.189321
	iter: 1740, training rms error:0.976556, test rms error:0.992041
	iter: 1800, training rms error:0.956199, test rms error:0.967181
	iter: 1860, training rms error:0.777732, test rms error:0.792267
	iter: 1920, training rms error:0.829252, test rms error:0.844638
	iter: 1980, training rms error:0.775785, test rms error:0.793335
	iter: 2040, training rms error:0.801273, test rms error:0.813393
	iter: 2100, training rms error:0.802289, test rms error:0.821195
	iter: 2160, training rms error:0.801262, test rms error:0.822278
	iter: 2220, training rms error:0.786092, test rms error:0.801769
	iter: 2280, training rms error:0.817924, test rms error:0.834947
	iter: 2340, training rms error:0.861732, test rms error:0.878337
	iter: 2400, training rms error:0.820225, test rms error:0.832636
	iter: 2460, training rms error:1.048745, test rms error:1.061673
	iter: 2520, training rms error:1.320411, test rms error:1.326936
	iter: 2580, training rms error:0.879433, test rms error:0.900814
	iter: 2640, training rms error:0.833264, test rms error:0.857907
	iter: 2700, training rms error:0.905070, test rms error:0.913749
	iter: 2760, training rms error:0.762349, test rms error:0.779446
	iter: 2820, training rms error:1.006348, test rms error:1.022951
	iter: 2880, training rms error:0.895693, test rms error:0.909794
	iter: 2940, training rms error:0.881495, test rms error:0.903514
	iter: 3000, training rms error:0.963887, test rms error:0.978167
	iter: 3060, training rms error:1.078907, test rms error:1.093129
	iter: 3120, training rms error:0.766079, test rms error:0.782274
	iter: 3180, training rms error:0.777034, test rms error:0.793855
	iter: 3240, training rms error:0.756097, test rms error:0.772290
	iter: 3300, training rms error:0.823104, test rms error:0.836874
	iter: 3360, training rms error:0.806997, test rms error:0.827321
	iter: 3420, training rms error:0.976954, test rms error:0.992849
	iter: 3480, training rms error:0.904458, test rms error:0.917808
	iter: 3540, training rms error:0.756438, test rms error:0.771498
	iter: 3600, training rms error:0.758772, test rms error:0.779165
	iter: 3660, training rms error:0.924843, test rms error:0.938640
	iter: 3720, training rms error:0.794402, test rms error:0.814737
	iter: 3780, training rms error:0.886109, test rms error:0.902748
	iter: 3840, training rms error:0.791810, test rms error:0.813088
	iter: 3900, training rms error:0.767920, test rms error:0.789999
	iter: 3960, training rms error:0.815401, test rms error:0.827211
	iter: 4020, training rms error:0.818414, test rms error:0.830880
	iter: 4080, training rms error:0.799439, test rms error:0.820028
	iter: 4140, training rms error:0.774123, test rms error:0.796931
	iter: 4200, training rms error:0.878783, test rms error:0.891924
	iter: 4260, training rms error:1.005241, test rms error:1.027853
	iter: 4320, training rms error:0.905194, test rms error:0.919752
	iter: 4380, training rms error:1.003160, test rms error:1.015028
	iter: 4440, training rms error:0.870229, test rms error:0.890298
	iter: 4500, training rms error:0.752064, test rms error:0.773412
	iter: 4560, training rms error:0.747490, test rms error:0.763349
	iter: 4620, training rms error:0.961365, test rms error:0.974271
	iter: 4680, training rms error:0.805176, test rms error:0.820716
	iter: 4740, training rms error:0.799115, test rms error:0.817999
	iter: 4800, training rms error:0.850432, test rms error:0.864698
	iter: 4860, training rms error:0.729981, test rms error:0.749845
	iter: 4920, training rms error:0.794794, test rms error:0.814893
	iter: 4980, training rms error:0.747160, test rms error:0.761592
	iter: 5040, training rms error:0.750190, test rms error:0.770159
	iter: 5100, training rms error:0.729053, test rms error:0.745597
	iter: 5160, training rms error:0.761890, test rms error:0.773408
	iter: 5220, training rms error:0.722679, test rms error:0.743133
	iter: 5280, training rms error:0.716972, test rms error:0.736146
	iter: 5340, training rms error:0.739670, test rms error:0.755343
	iter: 5400, training rms error:0.800731, test rms error:0.820966
	iter: 5460, training rms error:0.701707, test rms error:0.720848
	iter: 5520, training rms error:0.696336, test rms error:0.715310
	iter: 5580, training rms error:0.783660, test rms error:0.806212
	iter: 5640, training rms error:0.694103, test rms error:0.712173
	iter: 5700, training rms error:0.692297, test rms error:0.710029
	iter: 5760, training rms error:0.689825, test rms error:0.710817
	iter: 5820, training rms error:0.865735, test rms error:0.885643
	iter: 5880, training rms error:0.766389, test rms error:0.782609
	iter: 5940, training rms error:0.701407, test rms error:0.725615
	iter: 6000, training rms error:0.689955, test rms error:0.708436
***After training with mu = 0.05***
	W1
	+0.501005 	+0.123316 
	-0.351535 	+0.025093 
	-0.011231 	+0.590330 
	+0.211669 	-0.453411 
	-0.085085 	+0.037032 
	W2
	-0.026861 	+0.042142 	-0.099041 	+0.022771 	+0.024459 	+0.087534 
	-0.101016 	-0.338646 	+0.254629 	-0.214110 	-0.100493 	-0.081523 
	-0.144138 	+0.030324 	-0.038103 	-0.052727 	+0.094040 	+0.293399 
	-0.202888 	+0.114245 	-0.085950 	+0.070708 	-0.014539 	-0.090100 
	+0.051757 	-0.002176 	+0.014014 	-0.041713 	-0.058966 	-0.020935 
	W3
	+0.163151 	-0.034552 	+0.053398 	+0.232846 	-0.145425 	+0.104659 
	rms error on training data: 0.701407
	rms error on test data: 0.725615
****Total learning steps when training stopped***
 	6000
----------BP LEARN STARTED----------
***Initial weights***
	W1
	-0.001956 	+0.003862 
	+0.095947 	+0.057579 
	+0.024998 	-0.068962 
	+0.060776 	-0.047334 
	-0.074391 	-0.063576 
	W2
	-0.025971 	-0.056045 	+0.083912 	+0.049812 	-0.056022 	+0.034042 
	-0.086251 	-0.049363 	-0.007137 	+0.051329 	+0.014213 	-0.021973 
	+0.047675 	-0.055492 	-0.044568 	-0.066053 	-0.078050 	-0.047682 
	+0.014618 	+0.031087 	+0.010370 	+0.064257 	+0.092518 	+0.094203 
	+0.030888 	-0.071700 	+0.032083 	+0.088528 	+0.007569 	-0.024146 
	W3
	-0.043402 	-0.031523 	-0.030130 	-0.013172 	+0.038824 	+0.035393 
***Learning rate***
	0.005
***Momentum Update (forgetting factor)***
	0.5
***Stopping Criteria = max. learn steps OR rms train and test error < tolerance***
	Max learning steps
	6000
	Error Tolerance
	0.1
***Initial RMS Error (training) ***
	1.627034
***Initial RMS Error (test) ***
	1.657956
***Performance indicators while running BP algorithm***
	iter: 60, training rms error:1.587211, test rms error:1.618878
	iter: 120, training rms error:1.580948, test rms error:1.612723
	iter: 180, training rms error:1.584313, test rms error:1.616015
	iter: 240, training rms error:1.581202, test rms error:1.612954
	iter: 300, training rms error:1.581524, test rms error:1.613252
	iter: 360, training rms error:1.579082, test rms error:1.610847
	iter: 420, training rms error:1.583497, test rms error:1.615170
	iter: 480, training rms error:1.577761, test rms error:1.609532
	iter: 540, training rms error:1.582133, test rms error:1.613807
	iter: 600, training rms error:1.576170, test rms error:1.607942
	iter: 660, training rms error:1.576037, test rms error:1.607798
	iter: 720, training rms error:1.574792, test rms error:1.606561
	iter: 780, training rms error:1.573662, test rms error:1.605435
	iter: 840, training rms error:1.572735, test rms error:1.604508
	iter: 900, training rms error:1.571768, test rms error:1.603540
	iter: 960, training rms error:1.570804, test rms error:1.602574
	iter: 1020, training rms error:1.569806, test rms error:1.601578
	iter: 1080, training rms error:1.577020, test rms error:1.608634
	iter: 1140, training rms error:1.567432, test rms error:1.599204
	iter: 1200, training rms error:1.567818, test rms error:1.599557
	iter: 1260, training rms error:1.565938, test rms error:1.597688
	iter: 1320, training rms error:1.568418, test rms error:1.600098
	iter: 1380, training rms error:1.562949, test rms error:1.594698
	iter: 1440, training rms error:1.561994, test rms error:1.593729
	iter: 1500, training rms error:1.561068, test rms error:1.592795
	iter: 1560, training rms error:1.557995, test rms error:1.589750
	iter: 1620, training rms error:1.555354, test rms error:1.587115
	iter: 1680, training rms error:1.553994, test rms error:1.585738
	iter: 1740, training rms error:1.550857, test rms error:1.582622
	iter: 1800, training rms error:1.548848, test rms error:1.580612
	iter: 1860, training rms error:1.546876, test rms error:1.578623
	iter: 1920, training rms error:1.558959, test rms error:1.590396
	iter: 1980, training rms error:1.544830, test rms error:1.576519
	iter: 2040, training rms error:1.542673, test rms error:1.574352
	iter: 2100, training rms error:1.535600, test rms error:1.567351
	iter: 2160, training rms error:1.531466, test rms error:1.563220
	iter: 2220, training rms error:1.527468, test rms error:1.559219
	iter: 2280, training rms error:1.524813, test rms error:1.556542
	iter: 2340, training rms error:1.520081, test rms error:1.551808
	iter: 2400, training rms error:1.514669, test rms error:1.546408
	iter: 2460, training rms error:1.515992, test rms error:1.547587
	iter: 2520, training rms error:1.508183, test rms error:1.539859
	iter: 2580, training rms error:1.498691, test rms error:1.530413
	iter: 2640, training rms error:1.495362, test rms error:1.527035
	iter: 2700, training rms error:1.494503, test rms error:1.525959
	iter: 2760, training rms error:1.477476, test rms error:1.509160
	iter: 2820, training rms error:1.478152, test rms error:1.509701
	iter: 2880, training rms error:1.473177, test rms error:1.504669
	iter: 2940, training rms error:1.453706, test rms error:1.485366
	iter: 3000, training rms error:1.443700, test rms error:1.475284
	iter: 3060, training rms error:1.431358, test rms error:1.462935
	iter: 3120, training rms error:1.418343, test rms error:1.449924
	iter: 3180, training rms error:1.404801, test rms error:1.436343
	iter: 3240, training rms error:1.395051, test rms error:1.426534
	iter: 3300, training rms error:1.376697, test rms error:1.408175
	iter: 3360, training rms error:1.365450, test rms error:1.396852
	iter: 3420, training rms error:1.343890, test rms error:1.375254
	iter: 3480, training rms error:1.324836, test rms error:1.356128
	iter: 3540, training rms error:1.303879, test rms error:1.335082
	iter: 3600, training rms error:1.281291, test rms error:1.312378
	iter: 3660, training rms error:1.255373, test rms error:1.286320
	iter: 3720, training rms error:1.230895, test rms error:1.261683
	iter: 3780, training rms error:1.207043, test rms error:1.237651
	iter: 3840, training rms error:1.186985, test rms error:1.217414
	iter: 3900, training rms error:1.164621, test rms error:1.194796
	iter: 3960, training rms error:1.128352, test rms error:1.158225
	iter: 4020, training rms error:1.097079, test rms error:1.126511
	iter: 4080, training rms error:1.076708, test rms error:1.105885
	iter: 4140, training rms error:1.046156, test rms error:1.074884
	iter: 4200, training rms error:1.014732, test rms error:1.042676
	iter: 4260, training rms error:0.985039, test rms error:1.012443
	iter: 4320, training rms error:0.955744, test rms error:0.981811
	iter: 4380, training rms error:0.945852, test rms error:0.972025
	iter: 4440, training rms error:0.913825, test rms error:0.938674
	iter: 4500, training rms error:0.889785, test rms error:0.913736
	iter: 4560, training rms error:0.876828, test rms error:0.900172
	iter: 4620, training rms error:0.878546, test rms error:0.901529
	iter: 4680, training rms error:0.863593, test rms error:0.885985
	iter: 4740, training rms error:0.847224, test rms error:0.868478
	iter: 4800, training rms error:0.837975, test rms error:0.858073
	iter: 4860, training rms error:0.828270, test rms error:0.847189
	iter: 4920, training rms error:0.824354, test rms error:0.843121
	iter: 4980, training rms error:0.820390, test rms error:0.838217
	iter: 5040, training rms error:0.816066, test rms error:0.833452
	iter: 5100, training rms error:0.824232, test rms error:0.842127
	iter: 5160, training rms error:0.813824, test rms error:0.830425
	iter: 5220, training rms error:0.810555, test rms error:0.826579
	iter: 5280, training rms error:0.808261, test rms error:0.822559
	iter: 5340, training rms error:0.807550, test rms error:0.821659
	iter: 5400, training rms error:0.807334, test rms error:0.822207
	iter: 5460, training rms error:0.807454, test rms error:0.821896
	iter: 5520, training rms error:0.810198, test rms error:0.823515
	iter: 5580, training rms error:0.806338, test rms error:0.820659
	iter: 5640, training rms error:0.808632, test rms error:0.822851
	iter: 5700, training rms error:0.807016, test rms error:0.819590
	iter: 5760, training rms error:0.805799, test rms error:0.819402
	iter: 5820, training rms error:0.806645, test rms error:0.820897
	iter: 5880, training rms error:0.813271, test rms error:0.827685
	iter: 5940, training rms error:0.805482, test rms error:0.819118
	iter: 6000, training rms error:0.807115, test rms error:0.820602
***After training with mu = 0.005***
	W1
	-0.006820 	+0.010649 
	+0.086479 	+0.048060 
	+0.021796 	-0.211052 
	+0.233943 	-0.239230 
	-0.245251 	-0.155164 
	W2
	-0.022488 	-0.054097 	+0.082591 	+0.038464 	-0.059368 	-0.037639 
	-0.139014 	-0.047703 	+0.103431 	+0.143346 	+0.088911 	+0.032781 
	+0.045713 	-0.170968 	-0.140792 	-0.138905 	-0.131333 	-0.045706 
	+0.126788 	+0.125314 	-0.069444 	+0.005576 	+0.094386 	+0.217039 
	+0.133593 	-0.126900 	-0.008722 	+0.089604 	+0.092365 	+0.046536 
	W3
	-0.025849 	-0.199315 	-0.139652 	+0.010153 	+0.320138 	+0.265325 
	rms error on training data: 0.805482
	rms error on test data: 0.819118
****Total learning steps when training stopped***
 	6000
----------BP LEARN STARTED----------
***Initial weights***
	W1
	+0.089223 	-0.071850 
	-0.053870 	+0.040647 
	-0.060483 	-0.081336 
	-0.010139 	-0.012431 
	+0.025164 	+0.057458 
	W2
	-0.073710 	-0.028046 	-0.023146 	-0.066253 	+0.046940 	+0.084278 
	-0.015266 	+0.001645 	-0.013054 	-0.041464 	+0.017860 	+0.075239 
	+0.044262 	+0.042953 	+0.072152 	-0.060481 	-0.046138 	-0.019093 
	-0.090348 	-0.014366 	-0.062924 	+0.027423 	-0.006168 	+0.022528 
	+0.067968 	-0.040329 	+0.085697 	+0.071971 	+0.017738 	+0.062975 
	W3
	+0.008141 	+0.029495 	-0.037214 	-0.022210 	+0.068982 	-0.094349 
***Learning rate***
	0.0005
***Momentum Update (forgetting factor)***
	0.5
***Stopping Criteria = max. learn steps OR rms train and test error < tolerance***
	Max learning steps
	6000
	Error Tolerance
	0.1
***Initial RMS Error (training) ***
	1.579624
***Initial RMS Error (test) ***
	1.611399
***Performance indicators while running BP algorithm***
	iter: 60, training rms error:1.579521, test rms error:1.611296
	iter: 120, training rms error:1.579451, test rms error:1.611225
	iter: 180, training rms error:1.579411, test rms error:1.611185
	iter: 240, training rms error:1.579296, test rms error:1.611071
	iter: 300, training rms error:1.579228, test rms error:1.611002
	iter: 360, training rms error:1.579141, test rms error:1.610916
	iter: 420, training rms error:1.579050, test rms error:1.610825
	iter: 480, training rms error:1.578949, test rms error:1.610723
	iter: 540, training rms error:1.578878, test rms error:1.610653
	iter: 600, training rms error:1.578792, test rms error:1.610566
	iter: 660, training rms error:1.578693, test rms error:1.610468
	iter: 720, training rms error:1.578627, test rms error:1.610401
	iter: 780, training rms error:1.578542, test rms error:1.610316
	iter: 840, training rms error:1.578534, test rms error:1.610307
	iter: 900, training rms error:1.578364, test rms error:1.610138
	iter: 960, training rms error:1.578286, test rms error:1.610060
	iter: 1020, training rms error:1.578213, test rms error:1.609987
	iter: 1080, training rms error:1.578146, test rms error:1.609919
	iter: 1140, training rms error:1.577998, test rms error:1.609772
	iter: 1200, training rms error:1.577913, test rms error:1.609687
	iter: 1260, training rms error:1.577844, test rms error:1.609618
	iter: 1320, training rms error:1.577762, test rms error:1.609536
	iter: 1380, training rms error:1.577635, test rms error:1.609409
	iter: 1440, training rms error:1.577532, test rms error:1.609307
	iter: 1500, training rms error:1.577470, test rms error:1.609244
	iter: 1560, training rms error:1.577376, test rms error:1.609150
	iter: 1620, training rms error:1.577275, test rms error:1.609049
	iter: 1680, training rms error:1.577186, test rms error:1.608960
	iter: 1740, training rms error:1.577090, test rms error:1.608864
	iter: 1800, training rms error:1.576986, test rms error:1.608760
	iter: 1860, training rms error:1.576904, test rms error:1.608678
	iter: 1920, training rms error:1.576800, test rms error:1.608575
	iter: 1980, training rms error:1.576731, test rms error:1.608505
	iter: 2040, training rms error:1.576607, test rms error:1.608381
	iter: 2100, training rms error:1.576516, test rms error:1.608290
	iter: 2160, training rms error:1.576408, test rms error:1.608183
	iter: 2220, training rms error:1.576315, test rms error:1.608089
	iter: 2280, training rms error:1.576246, test rms error:1.608020
	iter: 2340, training rms error:1.576105, test rms error:1.607879
	iter: 2400, training rms error:1.576026, test rms error:1.607800
	iter: 2460, training rms error:1.575952, test rms error:1.607725
	iter: 2520, training rms error:1.575848, test rms error:1.607621
	iter: 2580, training rms error:1.575783, test rms error:1.607555
	iter: 2640, training rms error:1.575711, test rms error:1.607484
	iter: 2700, training rms error:1.575574, test rms error:1.607347
	iter: 2760, training rms error:1.575541, test rms error:1.607312
	iter: 2820, training rms error:1.575314, test rms error:1.607087
	iter: 2880, training rms error:1.575329, test rms error:1.607101
	iter: 2940, training rms error:1.575146, test rms error:1.606919
	iter: 3000, training rms error:1.574995, test rms error:1.606769
	iter: 3060, training rms error:1.574890, test rms error:1.606663
	iter: 3120, training rms error:1.574799, test rms error:1.606572
	iter: 3180, training rms error:1.574675, test rms error:1.606449
	iter: 3240, training rms error:1.574633, test rms error:1.606406
	iter: 3300, training rms error:1.574568, test rms error:1.606340
	iter: 3360, training rms error:1.574350, test rms error:1.606124
	iter: 3420, training rms error:1.574245, test rms error:1.606019
	iter: 3480, training rms error:1.574187, test rms error:1.605960
	iter: 3540, training rms error:1.574037, test rms error:1.605811
	iter: 3600, training rms error:1.573919, test rms error:1.605693
	iter: 3660, training rms error:1.573914, test rms error:1.605686
	iter: 3720, training rms error:1.573727, test rms error:1.605500
	iter: 3780, training rms error:1.573571, test rms error:1.605345
	iter: 3840, training rms error:1.573459, test rms error:1.605233
	iter: 3900, training rms error:1.573335, test rms error:1.605109
	iter: 3960, training rms error:1.573260, test rms error:1.605034
	iter: 4020, training rms error:1.573122, test rms error:1.604895
	iter: 4080, training rms error:1.573023, test rms error:1.604797
	iter: 4140, training rms error:1.572922, test rms error:1.604695
	iter: 4200, training rms error:1.572775, test rms error:1.604549
	iter: 4260, training rms error:1.572751, test rms error:1.604523
	iter: 4320, training rms error:1.572587, test rms error:1.604359
	iter: 4380, training rms error:1.572425, test rms error:1.604198
	iter: 4440, training rms error:1.572292, test rms error:1.604065
	iter: 4500, training rms error:1.572165, test rms error:1.603938
	iter: 4560, training rms error:1.572086, test rms error:1.603859
	iter: 4620, training rms error:1.571926, test rms error:1.603699
	iter: 4680, training rms error:1.571797, test rms error:1.603570
	iter: 4740, training rms error:1.571694, test rms error:1.603467
	iter: 4800, training rms error:1.571560, test rms error:1.603333
	iter: 4860, training rms error:1.571441, test rms error:1.603214
	iter: 4920, training rms error:1.571368, test rms error:1.603140
	iter: 4980, training rms error:1.571176, test rms error:1.602949
	iter: 5040, training rms error:1.571100, test rms error:1.602871
	iter: 5100, training rms error:1.571029, test rms error:1.602800
	iter: 5160, training rms error:1.570803, test rms error:1.602576
	iter: 5220, training rms error:1.570662, test rms error:1.602435
	iter: 5280, training rms error:1.570553, test rms error:1.602326
	iter: 5340, training rms error:1.570544, test rms error:1.602315
	iter: 5400, training rms error:1.570271, test rms error:1.602043
	iter: 5460, training rms error:1.570142, test rms error:1.601915
	iter: 5520, training rms error:1.570039, test rms error:1.601812
	iter: 5580, training rms error:1.569881, test rms error:1.601653
	iter: 5640, training rms error:1.569749, test rms error:1.601522
	iter: 5700, training rms error:1.569632, test rms error:1.601404
	iter: 5760, training rms error:1.569487, test rms error:1.601259
	iter: 5820, training rms error:1.569321, test rms error:1.601093
	iter: 5880, training rms error:1.569233, test rms error:1.601005
	iter: 5940, training rms error:1.569062, test rms error:1.600834
	iter: 6000, training rms error:1.568908, test rms error:1.600680
***After training with mu = 0.0005***
	W1
	+0.089172 	-0.071868 
	-0.053881 	+0.040618 
	-0.060448 	-0.089900 
	-0.001352 	-0.007589 
	+0.035047 	+0.071424 
	W2
	-0.073624 	-0.028095 	-0.023179 	-0.066156 	+0.046747 	+0.087694 
	-0.019237 	-0.000708 	-0.006633 	-0.051012 	+0.018079 	+0.074974 
	+0.044105 	+0.043394 	+0.071514 	-0.060092 	-0.046598 	-0.019365 
	-0.089597 	-0.015470 	-0.064129 	+0.028824 	-0.005338 	+0.020277 
	+0.071322 	-0.042913 	+0.088696 	+0.073749 	+0.012901 	+0.070179 
	W3
	+0.009517 	+0.042166 	-0.046161 	-0.027186 	+0.065387 	-0.105522 
	rms error on training data: 1.569062
	rms error on test data: 1.600834
****Total learning steps when training stopped***
 	6000
----------BP LEARN STARTED----------
***Initial weights***
	W1
	-0.051126 	+0.078862 
	+0.026119 	+0.065932 
	+0.060179 	+0.099114 
	-0.029566 	+0.041328 
	+0.087676 	+0.017577 
	W2
	+0.050832 	+0.004036 	+0.003403 	-0.093521 	+0.061163 	-0.041215 
	-0.077519 	+0.097305 	+0.043223 	-0.069983 	-0.067016 	+0.032620 
	-0.097014 	-0.090368 	+0.039275 	+0.045405 	+0.094178 	+0.079587 
	+0.061403 	+0.053627 	+0.093369 	-0.014458 	+0.098765 	-0.006867 
	-0.081091 	-0.035231 	+0.086038 	-0.052868 	+0.041759 	-0.037792 
	W3
	+0.073931 	+0.049771 	-0.009675 	+0.053596 	-0.021848 	+0.033251 
***Learning rate***
	0.01
***Momentum Update (forgetting factor)***
	0.5
***Stopping Criteria = max. learn steps OR rms train and test error < tolerance***
	Max learning steps
	6000
	Error Tolerance
	0.1
***Initial RMS Error (training) ***
	1.769093
***Initial RMS Error (test) ***
	1.797923
***Performance indicators while running BP algorithm***
	iter: 60, training rms error:1.644361, test rms error:1.675297
	iter: 120, training rms error:1.602414, test rms error:1.634111
	iter: 180, training rms error:1.623528, test rms error:1.654795
	iter: 240, training rms error:1.595480, test rms error:1.627227
	iter: 300, training rms error:1.591805, test rms error:1.623579
	iter: 360, training rms error:1.589700, test rms error:1.621475
	iter: 420, training rms error:1.588661, test rms error:1.620403
	iter: 480, training rms error:1.601371, test rms error:1.632796
	iter: 540, training rms error:1.582704, test rms error:1.614459
	iter: 600, training rms error:1.588876, test rms error:1.620487
	iter: 660, training rms error:1.583366, test rms error:1.615036
	iter: 720, training rms error:1.585220, test rms error:1.616773
	iter: 780, training rms error:1.576878, test rms error:1.608562
	iter: 840, training rms error:1.569333, test rms error:1.601087
	iter: 900, training rms error:1.566758, test rms error:1.598502
	iter: 960, training rms error:1.562229, test rms error:1.593967
	iter: 1020, training rms error:1.562620, test rms error:1.594282
	iter: 1080, training rms error:1.569783, test rms error:1.601221
	iter: 1140, training rms error:1.545854, test rms error:1.577612
	iter: 1200, training rms error:1.549147, test rms error:1.580690
	iter: 1260, training rms error:1.544224, test rms error:1.575790
	iter: 1320, training rms error:1.536240, test rms error:1.567813
	iter: 1380, training rms error:1.523961, test rms error:1.555474
	iter: 1440, training rms error:1.504637, test rms error:1.536295
	iter: 1500, training rms error:1.485645, test rms error:1.517339
	iter: 1560, training rms error:1.472974, test rms error:1.504519
	iter: 1620, training rms error:1.457597, test rms error:1.489130
	iter: 1680, training rms error:1.426247, test rms error:1.457827
	iter: 1740, training rms error:1.396440, test rms error:1.427943
	iter: 1800, training rms error:1.380542, test rms error:1.411822
	iter: 1860, training rms error:1.338872, test rms error:1.370108
	iter: 1920, training rms error:1.298136, test rms error:1.329283
	iter: 1980, training rms error:1.259281, test rms error:1.290161
	iter: 2040, training rms error:1.195636, test rms error:1.226007
	iter: 2100, training rms error:1.147329, test rms error:1.177403
	iter: 2160, training rms error:1.074538, test rms error:1.103584
	iter: 2220, training rms error:1.019590, test rms error:1.047721
	iter: 2280, training rms error:0.963062, test rms error:0.989977
	iter: 2340, training rms error:0.913860, test rms error:0.939088
	iter: 2400, training rms error:0.894720, test rms error:0.919296
	iter: 2460, training rms error:0.886426, test rms error:0.910062
	iter: 2520, training rms error:0.866812, test rms error:0.889544
	iter: 2580, training rms error:0.836392, test rms error:0.856711
	iter: 2640, training rms error:0.821203, test rms error:0.840203
	iter: 2700, training rms error:0.810561, test rms error:0.827552
	iter: 2760, training rms error:0.820210, test rms error:0.839005
	iter: 2820, training rms error:0.815403, test rms error:0.831321
	iter: 2880, training rms error:0.811150, test rms error:0.827062
	iter: 2940, training rms error:0.811266, test rms error:0.825325
	iter: 3000, training rms error:0.806155, test rms error:0.821296
	iter: 3060, training rms error:0.808112, test rms error:0.824225
	iter: 3120, training rms error:0.805010, test rms error:0.819994
	iter: 3180, training rms error:0.806134, test rms error:0.820003
	iter: 3240, training rms error:0.804003, test rms error:0.817870
	iter: 3300, training rms error:0.805605, test rms error:0.819585
	iter: 3360, training rms error:0.806446, test rms error:0.821162
	iter: 3420, training rms error:0.812433, test rms error:0.827299
	iter: 3480, training rms error:0.807026, test rms error:0.821509
	iter: 3540, training rms error:0.803550, test rms error:0.817897
	iter: 3600, training rms error:0.809534, test rms error:0.823352
	iter: 3660, training rms error:0.807160, test rms error:0.821728
	iter: 3720, training rms error:0.804659, test rms error:0.820468
	iter: 3780, training rms error:0.803781, test rms error:0.817775
	iter: 3840, training rms error:0.803207, test rms error:0.818031
	iter: 3900, training rms error:0.803010, test rms error:0.816732
	iter: 3960, training rms error:0.805143, test rms error:0.817994
	iter: 4020, training rms error:0.802933, test rms error:0.818154
	iter: 4080, training rms error:0.803001, test rms error:0.817269
	iter: 4140, training rms error:0.816254, test rms error:0.829031
	iter: 4200, training rms error:0.802893, test rms error:0.817052
	iter: 4260, training rms error:0.807508, test rms error:0.823184
	iter: 4320, training rms error:0.806779, test rms error:0.821881
	iter: 4380, training rms error:0.801078, test rms error:0.815756
	iter: 4440, training rms error:0.802937, test rms error:0.815617
	iter: 4500, training rms error:0.801538, test rms error:0.814581
	iter: 4560, training rms error:0.801577, test rms error:0.815408
	iter: 4620, training rms error:0.805625, test rms error:0.820069
	iter: 4680, training rms error:0.819349, test rms error:0.835557
	iter: 4740, training rms error:0.800421, test rms error:0.815304
	iter: 4800, training rms error:0.823102, test rms error:0.835694
	iter: 4860, training rms error:0.803993, test rms error:0.818846
	iter: 4920, training rms error:0.803952, test rms error:0.817245
	iter: 4980, training rms error:0.801087, test rms error:0.814416
	iter: 5040, training rms error:0.800597, test rms error:0.813427
	iter: 5100, training rms error:0.799185, test rms error:0.813970
	iter: 5160, training rms error:0.803759, test rms error:0.818567
	iter: 5220, training rms error:0.798679, test rms error:0.812986
	iter: 5280, training rms error:0.800423, test rms error:0.814154
	iter: 5340, training rms error:0.808227, test rms error:0.821285
	iter: 5400, training rms error:0.798611, test rms error:0.813343
	iter: 5460, training rms error:0.800007, test rms error:0.815601
	iter: 5520, training rms error:0.804315, test rms error:0.817750
	iter: 5580, training rms error:0.798006, test rms error:0.812190
	iter: 5640, training rms error:0.807916, test rms error:0.823833
	iter: 5700, training rms error:0.797648, test rms error:0.812162
	iter: 5760, training rms error:0.799265, test rms error:0.813765
	iter: 5820, training rms error:0.798841, test rms error:0.812979
	iter: 5880, training rms error:0.805840, test rms error:0.817979
	iter: 5940, training rms error:0.797261, test rms error:0.810909
	iter: 6000, training rms error:0.797031, test rms error:0.811822
***After training with batch size, K = 1***
	W1
	+0.016134 	+0.061002 
	+0.027503 	+0.099879 
	+0.065108 	+0.331789 
	-0.176543 	+0.064224 
	+0.271156 	+0.092538 
	W2
	+0.045319 	+0.004609 	+0.013009 	-0.080963 	+0.025764 	-0.073107 
	-0.100094 	+0.192426 	+0.148265 	-0.244230 	-0.056179 	+0.043596 
	-0.141923 	-0.134818 	+0.111753 	+0.036913 	+0.089948 	+0.097798 
	+0.084302 	+0.014988 	+0.067940 	-0.032460 	+0.175370 	+0.077470 
	-0.222314 	-0.045134 	+0.079042 	-0.022375 	+0.075112 	-0.094148 
	W3
	-0.013667 	+0.017370 	+0.062235 	-0.250819 	-0.211749 	+0.339706 
	rms error on training data: 0.797261
	rms error on test data: 0.810909
****Total learning steps when training stopped***
 	6000
----------BP LEARN STARTED----------
***Initial weights***
	W1
	+0.083990 	+0.022952 
	-0.094110 	-0.022116 
	-0.041539 	+0.035025 
	+0.084515 	-0.020892 
	+0.051031 	-0.084281 
	W2
	+0.055468 	+0.043646 	-0.086889 	+0.074589 	-0.026406 	-0.004120 
	-0.040609 	+0.046747 	+0.045306 	+0.072437 	-0.065944 	+0.008671 
	-0.070263 	+0.035865 	-0.081608 	+0.062046 	+0.051837 	+0.004951 
	+0.054124 	-0.032084 	+0.080431 	-0.030906 	-0.083195 	-0.003060 
	+0.003663 	+0.084100 	-0.036470 	+0.079947 	+0.096949 	-0.090582 
	W3
	-0.070339 	-0.061460 	+0.079653 	-0.039198 	-0.048859 	+0.083908 
***Learning rate***
	0.01
***Momentum Update (forgetting factor)***
	0.5
***Stopping Criteria = max. learn steps OR rms train and test error < tolerance***
	Max learning steps
	6000
	Error Tolerance
	0.1
***Initial RMS Error (training) ***
	1.739111
***Initial RMS Error (test) ***
	1.768573
***Performance indicators while running BP algorithm***
	iter: 60, training rms error:1.617834, test rms error:1.649421
	iter: 120, training rms error:1.626829, test rms error:1.658200
	iter: 180, training rms error:1.621983, test rms error:1.653391
	iter: 240, training rms error:1.623063, test rms error:1.654391
	iter: 300, training rms error:1.606635, test rms error:1.638236
	iter: 360, training rms error:1.595428, test rms error:1.627204
	iter: 420, training rms error:1.598248, test rms error:1.629926
	iter: 480, training rms error:1.598374, test rms error:1.630003
	iter: 540, training rms error:1.589668, test rms error:1.621429
	iter: 600, training rms error:1.587193, test rms error:1.618969
	iter: 660, training rms error:1.590368, test rms error:1.622045
	iter: 720, training rms error:1.584814, test rms error:1.616564
	iter: 780, training rms error:1.591227, test rms error:1.622807
	iter: 840, training rms error:1.580607, test rms error:1.612340
	iter: 900, training rms error:1.577706, test rms error:1.609443
	iter: 960, training rms error:1.573358, test rms error:1.605125
	iter: 1020, training rms error:1.591348, test rms error:1.622705
	iter: 1080, training rms error:1.569122, test rms error:1.600854
	iter: 1140, training rms error:1.571809, test rms error:1.603411
	iter: 1200, training rms error:1.566118, test rms error:1.597758
	iter: 1260, training rms error:1.555704, test rms error:1.587467
	iter: 1320, training rms error:1.586962, test rms error:1.618010
	iter: 1380, training rms error:1.551570, test rms error:1.583190
	iter: 1440, training rms error:1.538430, test rms error:1.570180
	iter: 1500, training rms error:1.546119, test rms error:1.577598
	iter: 1560, training rms error:1.524145, test rms error:1.555887
	iter: 1620, training rms error:1.516156, test rms error:1.547855
	iter: 1680, training rms error:1.514540, test rms error:1.546062
	iter: 1740, training rms error:1.490805, test rms error:1.522495
	iter: 1800, training rms error:1.478221, test rms error:1.509835
	iter: 1860, training rms error:1.456086, test rms error:1.487666
	iter: 1920, training rms error:1.465750, test rms error:1.496734
	iter: 1980, training rms error:1.411734, test rms error:1.443264
	iter: 2040, training rms error:1.392932, test rms error:1.424199
	iter: 2100, training rms error:1.353135, test rms error:1.384491
	iter: 2160, training rms error:1.336947, test rms error:1.367902
	iter: 2220, training rms error:1.269558, test rms error:1.300345
	iter: 2280, training rms error:1.207371, test rms error:1.237911
	iter: 2340, training rms error:1.168695, test rms error:1.198758
	iter: 2400, training rms error:1.113796, test rms error:1.143572
	iter: 2460, training rms error:1.083983, test rms error:1.113075
	iter: 2520, training rms error:1.003742, test rms error:1.031660
	iter: 2580, training rms error:0.953128, test rms error:0.979378
	iter: 2640, training rms error:0.918518, test rms error:0.944192
	iter: 2700, training rms error:0.875130, test rms error:0.899120
	iter: 2760, training rms error:0.851640, test rms error:0.874319
	iter: 2820, training rms error:0.826403, test rms error:0.846510
	iter: 2880, training rms error:0.822267, test rms error:0.839511
	iter: 2940, training rms error:0.806094, test rms error:0.823652
	iter: 3000, training rms error:0.818377, test rms error:0.835941
	iter: 3060, training rms error:0.803160, test rms error:0.820211
	iter: 3120, training rms error:0.804814, test rms error:0.820751
	iter: 3180, training rms error:0.805563, test rms error:0.821881
	iter: 3240, training rms error:0.805584, test rms error:0.821447
	iter: 3300, training rms error:0.801595, test rms error:0.818356
	iter: 3360, training rms error:0.799582, test rms error:0.815286
	iter: 3420, training rms error:0.827009, test rms error:0.840535
	iter: 3480, training rms error:0.802113, test rms error:0.817434
	iter: 3540, training rms error:0.804574, test rms error:0.818775
	iter: 3600, training rms error:0.797935, test rms error:0.812507
	iter: 3660, training rms error:0.799256, test rms error:0.813721
	iter: 3720, training rms error:0.800203, test rms error:0.813929
	iter: 3780, training rms error:0.797241, test rms error:0.812239
	iter: 3840, training rms error:0.817231, test rms error:0.830915
	iter: 3900, training rms error:0.796931, test rms error:0.811199
	iter: 3960, training rms error:0.805571, test rms error:0.820693
	iter: 4020, training rms error:0.796468, test rms error:0.811126
	iter: 4080, training rms error:0.799323, test rms error:0.813379
	iter: 4140, training rms error:0.796509, test rms error:0.810913
	iter: 4200, training rms error:0.796156, test rms error:0.811184
	iter: 4260, training rms error:0.799292, test rms error:0.814758
	iter: 4320, training rms error:0.801556, test rms error:0.816273
	iter: 4380, training rms error:0.800104, test rms error:0.815872
	iter: 4440, training rms error:0.795621, test rms error:0.809535
	iter: 4500, training rms error:0.801994, test rms error:0.817638
	iter: 4560, training rms error:0.806090, test rms error:0.820283
	iter: 4620, training rms error:0.794934, test rms error:0.809105
	iter: 4680, training rms error:0.801334, test rms error:0.814741
	iter: 4740, training rms error:0.795133, test rms error:0.810178
	iter: 4800, training rms error:0.804355, test rms error:0.819116
	iter: 4860, training rms error:0.814694, test rms error:0.830870
	iter: 4920, training rms error:0.794140, test rms error:0.809389
	iter: 4980, training rms error:0.804163, test rms error:0.818424
	iter: 5040, training rms error:0.796764, test rms error:0.810513
	iter: 5100, training rms error:0.796724, test rms error:0.812845
	iter: 5160, training rms error:0.796425, test rms error:0.810087
	iter: 5220, training rms error:0.793438, test rms error:0.807744
	iter: 5280, training rms error:0.793537, test rms error:0.808637
	iter: 5340, training rms error:0.793522, test rms error:0.809347
	iter: 5400, training rms error:0.792762, test rms error:0.807144
	iter: 5460, training rms error:0.799902, test rms error:0.812656
	iter: 5520, training rms error:0.800783, test rms error:0.815852
	iter: 5580, training rms error:0.792385, test rms error:0.806611
	iter: 5640, training rms error:0.794592, test rms error:0.808498
	iter: 5700, training rms error:0.792526, test rms error:0.806657
	iter: 5760, training rms error:0.800927, test rms error:0.814190
	iter: 5820, training rms error:0.794667, test rms error:0.809751
	iter: 5880, training rms error:0.791778, test rms error:0.807033
	iter: 5940, training rms error:0.799483, test rms error:0.814108
	iter: 6000, training rms error:0.791311, test rms error:0.806353
***After training with batch size, K = 10***
	W1
	+0.084869 	+0.086919 
	-0.094826 	+0.006484 
	-0.037575 	+0.086202 
	+0.368392 	+0.006881 
	+0.267695 	+0.134012 
	W2
	+0.046846 	+0.044489 	-0.085392 	+0.067297 	-0.029871 	+0.018740 
	-0.097611 	+0.035173 	+0.077866 	+0.013038 	+0.012685 	-0.185175 
	-0.118809 	+0.151899 	-0.285371 	+0.059540 	+0.058805 	+0.003756 
	+0.051610 	-0.025082 	+0.136385 	-0.168562 	-0.118803 	+0.079947 
	-0.141050 	+0.091322 	-0.060935 	+0.059192 	+0.116494 	-0.119840 
	W3
	+0.043602 	-0.108621 	+0.283006 	+0.116223 	-0.189317 	+0.316628 
	rms error on training data: 0.799483
	rms error on test data: 0.814108
****Total learning steps when training stopped***
 	6000
----------BP LEARN STARTED----------
***Initial weights***
	W1
	+0.077884 	-0.084653 
	+0.070786 	-0.030435 
	+0.054660 	+0.022937 
	-0.081387 	-0.059974 
	-0.085735 	-0.070463 
	W2
	-0.015516 	-0.080491 	-0.007807 	-0.020203 	+0.030569 	-0.011060 
	-0.081157 	+0.065773 	+0.025981 	-0.035750 	+0.013362 	-0.062175 
	+0.091682 	-0.042860 	+0.053863 	-0.080331 	-0.003214 	-0.084051 
	+0.062467 	+0.075401 	-0.053953 	-0.036795 	-0.072637 	-0.020673 
	-0.012194 	-0.002995 	-0.041277 	+0.077255 	+0.080698 	+0.069195 
	W3
	+0.096999 	+0.041204 	+0.004533 	-0.043827 	+0.097406 	+0.061867 
***Learning rate***
	0.01
***Momentum Update (forgetting factor)***
	0.5
***Stopping Criteria = max. learn steps OR rms train and test error < tolerance***
	Max learning steps
	6000
	Error Tolerance
	0.1
***Initial RMS Error (training) ***
	1.823450
***Initial RMS Error (test) ***
	1.851112
***Performance indicators while running BP algorithm***
	iter: 60, training rms error:1.583723, test rms error:1.615491
	iter: 120, training rms error:1.582572, test rms error:1.614308
	iter: 180, training rms error:1.578124, test rms error:1.609899
	iter: 240, training rms error:1.575581, test rms error:1.607349
	iter: 300, training rms error:1.587473, test rms error:1.618933
	iter: 360, training rms error:1.568732, test rms error:1.600505
	iter: 420, training rms error:1.565934, test rms error:1.597685
	iter: 480, training rms error:1.561841, test rms error:1.593592
	iter: 540, training rms error:1.557177, test rms error:1.588927
	iter: 600, training rms error:1.552926, test rms error:1.584666
	iter: 660, training rms error:1.548211, test rms error:1.579942
	iter: 720, training rms error:1.542896, test rms error:1.574600
	iter: 780, training rms error:1.551427, test rms error:1.582766
	iter: 840, training rms error:1.544656, test rms error:1.576006
	iter: 900, training rms error:1.517082, test rms error:1.548726
	iter: 960, training rms error:1.504225, test rms error:1.535942
	iter: 1020, training rms error:1.493003, test rms error:1.524667
	iter: 1080, training rms error:1.485761, test rms error:1.517288
	iter: 1140, training rms error:1.457689, test rms error:1.489349
	iter: 1200, training rms error:1.435922, test rms error:1.467535
	iter: 1260, training rms error:1.409014, test rms error:1.440564
	iter: 1320, training rms error:1.384566, test rms error:1.415810
	iter: 1380, training rms error:1.348400, test rms error:1.379704
	iter: 1440, training rms error:1.309535, test rms error:1.340742
	iter: 1500, training rms error:1.264977, test rms error:1.295949
	iter: 1560, training rms error:1.232830, test rms error:1.263348
	iter: 1620, training rms error:1.194847, test rms error:1.223701
	iter: 1680, training rms error:1.097846, test rms error:1.127315
	iter: 1740, training rms error:1.058856, test rms error:1.087522
	iter: 1800, training rms error:0.990718, test rms error:1.018299
	iter: 1860, training rms error:0.950729, test rms error:0.977298
	iter: 1920, training rms error:0.924742, test rms error:0.950011
	iter: 1980, training rms error:0.879712, test rms error:0.903338
	iter: 2040, training rms error:0.845642, test rms error:0.867074
	iter: 2100, training rms error:0.838457, test rms error:0.856993
	iter: 2160, training rms error:0.822394, test rms error:0.841177
	iter: 2220, training rms error:0.813791, test rms error:0.830342
	iter: 2280, training rms error:0.820296, test rms error:0.837516
	iter: 2340, training rms error:0.807953, test rms error:0.823328
	iter: 2400, training rms error:0.808049, test rms error:0.823349
	iter: 2460, training rms error:0.811391, test rms error:0.827770
	iter: 2520, training rms error:0.808398, test rms error:0.824469
	iter: 2580, training rms error:0.807141, test rms error:0.822066
	iter: 2640, training rms error:0.813756, test rms error:0.826185
	iter: 2700, training rms error:0.816043, test rms error:0.830724
	iter: 2760, training rms error:0.809976, test rms error:0.823594
	iter: 2820, training rms error:0.806878, test rms error:0.821729
	iter: 2880, training rms error:0.809494, test rms error:0.821737
	iter: 2940, training rms error:0.808518, test rms error:0.819890
	iter: 3000, training rms error:0.805081, test rms error:0.819571
	iter: 3060, training rms error:0.821623, test rms error:0.836272
	iter: 3120, training rms error:0.806611, test rms error:0.821568
	iter: 3180, training rms error:0.806935, test rms error:0.820983
	iter: 3240, training rms error:0.809182, test rms error:0.824558
	iter: 3300, training rms error:0.819377, test rms error:0.834349
	iter: 3360, training rms error:0.816964, test rms error:0.829688
	iter: 3420, training rms error:0.803519, test rms error:0.817814
	iter: 3480, training rms error:0.803441, test rms error:0.818143
	iter: 3540, training rms error:0.805919, test rms error:0.821589
	iter: 3600, training rms error:0.805190, test rms error:0.818607
	iter: 3660, training rms error:0.825276, test rms error:0.836291
	iter: 3720, training rms error:0.810813, test rms error:0.824586
	iter: 3780, training rms error:0.802395, test rms error:0.816675
	iter: 3840, training rms error:0.805879, test rms error:0.820590
	iter: 3900, training rms error:0.807944, test rms error:0.822920
	iter: 3960, training rms error:0.803805, test rms error:0.818824
	iter: 4020, training rms error:0.833157, test rms error:0.845161
	iter: 4080, training rms error:0.802180, test rms error:0.815511
	iter: 4140, training rms error:0.807931, test rms error:0.820654
	iter: 4200, training rms error:0.801769, test rms error:0.816123
	iter: 4260, training rms error:0.806879, test rms error:0.819685
	iter: 4320, training rms error:0.807524, test rms error:0.820873
	iter: 4380, training rms error:0.803949, test rms error:0.818428
	iter: 4440, training rms error:0.812487, test rms error:0.827033
	iter: 4500, training rms error:0.800746, test rms error:0.814322
	iter: 4560, training rms error:0.805909, test rms error:0.820085
	iter: 4620, training rms error:0.803570, test rms error:0.818392
	iter: 4680, training rms error:0.808201, test rms error:0.822513
	iter: 4740, training rms error:0.800190, test rms error:0.814663
	iter: 4800, training rms error:0.804083, test rms error:0.818553
	iter: 4860, training rms error:0.807750, test rms error:0.823889
	iter: 4920, training rms error:0.801076, test rms error:0.814639
	iter: 4980, training rms error:0.801864, test rms error:0.815087
	iter: 5040, training rms error:0.822436, test rms error:0.835377
	iter: 5100, training rms error:0.800903, test rms error:0.813599
	iter: 5160, training rms error:0.812545, test rms error:0.824368
	iter: 5220, training rms error:0.799823, test rms error:0.815005
	iter: 5280, training rms error:0.808342, test rms error:0.824647
	iter: 5340, training rms error:0.801219, test rms error:0.816645
	iter: 5400, training rms error:0.807880, test rms error:0.821572
	iter: 5460, training rms error:0.799914, test rms error:0.813613
	iter: 5520, training rms error:0.801276, test rms error:0.815577
	iter: 5580, training rms error:0.799328, test rms error:0.813597
	iter: 5640, training rms error:0.804478, test rms error:0.816449
	iter: 5700, training rms error:0.803132, test rms error:0.816567
	iter: 5760, training rms error:0.798870, test rms error:0.814350
	iter: 5820, training rms error:0.798502, test rms error:0.812750
	iter: 5880, training rms error:0.799215, test rms error:0.813653
	iter: 5940, training rms error:0.798914, test rms error:0.813375
	iter: 6000, training rms error:0.804727, test rms error:0.818430
***After training with batch size, K = 20***
	W1
	+0.081124 	-0.092360 
	+0.010877 	-0.040899 
	+0.005897 	+0.088129 
	-0.149288 	-0.302246 
	-0.178172 	-0.283294 
	W2
	-0.020431 	-0.081217 	-0.005631 	-0.045376 	-0.000201 	-0.013251 
	-0.073761 	+0.084654 	-0.024766 	-0.084233 	+0.019794 	-0.075322 
	+0.054291 	+0.055233 	+0.145334 	-0.076298 	-0.027214 	-0.142149 
	+0.212938 	+0.217596 	-0.047346 	-0.052307 	-0.115596 	+0.090752 
	+0.091459 	+0.001989 	-0.064258 	+0.020087 	+0.228588 	+0.208407 
	W3
	+0.031376 	-0.030837 	-0.077201 	-0.120583 	+0.320007 	+0.339878 
	rms error on training data: 0.798914
	rms error on test data: 0.813375
****Total learning steps when training stopped***
 	6000
----------BP LEARN STARTED----------
***Initial weights***
	W1
	-0.017454 	-0.020663 
	+0.085768 	-0.056241 
	+0.074318 	-0.027160 
	-0.084809 	+0.029593 
	-0.096156 	+0.028803 
	W2
	-0.012669 	-0.004802 	-0.013322 	-0.081719 	-0.024066 	+0.029823 
	+0.044182 	-0.003077 	-0.023751 	+0.051943 	+0.001784 	-0.004896 
	-0.056261 	-0.051263 	+0.005590 	+0.025167 	+0.084337 	+0.091334 
	-0.063610 	-0.050862 	+0.041355 	-0.098414 	+0.065670 	+0.038018 
	+0.052744 	-0.086261 	+0.059353 	-0.044569 	+0.068467 	+0.037593 
	W3
	+0.055989 	+0.051520 	+0.054100 	+0.049635 	-0.054903 	+0.063553 
***Learning rate***
	0.01
***Momentum Update (forgetting factor)***
	0.5
***Stopping Criteria = max. learn steps OR rms train and test error < tolerance***
	Max learning steps
	6000
	Error Tolerance
	0.1
***Initial RMS Error (training) ***
	1.677446
***Initial RMS Error (test) ***
	1.707590
***Performance indicators while running BP algorithm***
	iter: 60, training rms error:1.677446, test rms error:1.707590
	iter: 120, training rms error:1.677446, test rms error:1.707590
	iter: 180, training rms error:1.677446, test rms error:1.707590
	iter: 240, training rms error:1.827180, test rms error:1.854806
	iter: 300, training rms error:1.827180, test rms error:1.854806
	iter: 360, training rms error:1.827180, test rms error:1.854806
	iter: 420, training rms error:1.773831, test rms error:1.802195
	iter: 480, training rms error:1.773831, test rms error:1.802195
	iter: 540, training rms error:1.773831, test rms error:1.802195
	iter: 600, training rms error:1.579963, test rms error:1.611611
	iter: 660, training rms error:1.579963, test rms error:1.611611
	iter: 720, training rms error:1.579963, test rms error:1.611611
	iter: 780, training rms error:1.579963, test rms error:1.611611
	iter: 840, training rms error:1.780086, test rms error:1.808094
	iter: 900, training rms error:1.780086, test rms error:1.808094
	iter: 960, training rms error:1.780086, test rms error:1.808094
	iter: 1020, training rms error:2.244186, test rms error:2.266361
	iter: 1080, training rms error:2.244186, test rms error:2.266361
	iter: 1140, training rms error:2.244186, test rms error:2.266361
	iter: 1200, training rms error:2.189991, test rms error:2.212540
	iter: 1260, training rms error:2.189991, test rms error:2.212540
	iter: 1320, training rms error:2.189991, test rms error:2.212540
	iter: 1380, training rms error:2.189991, test rms error:2.212540
	iter: 1440, training rms error:1.598147, test rms error:1.628732
	iter: 1500, training rms error:1.598147, test rms error:1.628732
	iter: 1560, training rms error:1.598147, test rms error:1.628732
	iter: 1620, training rms error:2.019485, test rms error:2.043477
	iter: 1680, training rms error:2.019485, test rms error:2.043477
	iter: 1740, training rms error:2.019485, test rms error:2.043477
	iter: 1800, training rms error:3.189518, test rms error:3.204463
	iter: 1860, training rms error:3.189518, test rms error:3.204463
	iter: 1920, training rms error:3.189518, test rms error:3.204463
	iter: 1980, training rms error:3.189518, test rms error:3.204463
	iter: 2040, training rms error:3.104758, test rms error:3.120092
	iter: 2100, training rms error:3.104758, test rms error:3.120092
	iter: 2160, training rms error:3.104758, test rms error:3.120092
	iter: 2220, training rms error:1.636494, test rms error:1.665614
	iter: 2280, training rms error:1.636494, test rms error:1.665614
	iter: 2340, training rms error:1.636494, test rms error:1.665614
	iter: 2400, training rms error:2.824163, test rms error:2.840682
	iter: 2460, training rms error:2.824163, test rms error:2.840682
	iter: 2520, training rms error:2.824163, test rms error:2.840682
	iter: 2580, training rms error:2.824163, test rms error:2.840682
	iter: 2640, training rms error:4.811184, test rms error:4.820568
	iter: 2700, training rms error:4.811184, test rms error:4.820568
	iter: 2760, training rms error:4.811184, test rms error:4.820568
	iter: 2820, training rms error:3.432024, test rms error:3.445659
	iter: 2880, training rms error:3.432024, test rms error:3.445659
	iter: 2940, training rms error:3.432024, test rms error:3.445659
	iter: 3000, training rms error:1.715898, test rms error:1.745018
	iter: 3060, training rms error:1.715898, test rms error:1.745018
	iter: 3120, training rms error:1.715898, test rms error:1.745018
	iter: 3180, training rms error:1.715898, test rms error:1.745018
	iter: 3240, training rms error:5.012197, test rms error:5.022025
	iter: 3300, training rms error:5.012197, test rms error:5.022025
	iter: 3360, training rms error:5.012197, test rms error:5.022025
	iter: 3420, training rms error:5.306824, test rms error:5.314528
	iter: 3480, training rms error:5.306824, test rms error:5.314528
	iter: 3540, training rms error:5.306824, test rms error:5.314528
	iter: 3600, training rms error:1.957526, test rms error:1.977712
	iter: 3660, training rms error:1.957526, test rms error:1.977712
	iter: 3720, training rms error:1.957526, test rms error:1.977712
	iter: 3780, training rms error:1.957526, test rms error:1.977712
	iter: 3840, training rms error:3.520969, test rms error:3.534008
	iter: 3900, training rms error:3.520969, test rms error:3.534008
	iter: 3960, training rms error:3.520969, test rms error:3.534008
	iter: 4020, training rms error:6.902537, test rms error:6.911286
	iter: 4080, training rms error:6.902537, test rms error:6.911286
	iter: 4140, training rms error:6.902537, test rms error:6.911286
	iter: 4200, training rms error:2.550303, test rms error:2.567458
	iter: 4260, training rms error:2.550303, test rms error:2.567458
	iter: 4320, training rms error:2.550303, test rms error:2.567458
	iter: 4380, training rms error:2.550303, test rms error:2.567458
	iter: 4440, training rms error:1.115764, test rms error:1.128442
	iter: 4500, training rms error:1.115764, test rms error:1.128442
	iter: 4560, training rms error:1.115764, test rms error:1.128442
	iter: 4620, training rms error:6.450406, test rms error:6.452101
	iter: 4680, training rms error:6.450406, test rms error:6.452101
	iter: 4740, training rms error:6.450406, test rms error:6.452101
	iter: 4800, training rms error:8.178415, test rms error:8.185452
	iter: 4860, training rms error:8.178415, test rms error:8.185452
	iter: 4920, training rms error:8.178415, test rms error:8.185452
	iter: 4980, training rms error:8.178415, test rms error:8.185452
	iter: 5040, training rms error:13.138208, test rms error:13.142191
	iter: 5100, training rms error:13.138208, test rms error:13.142191
	iter: 5160, training rms error:13.138208, test rms error:13.142191
	iter: 5220, training rms error:9.741653, test rms error:9.742245
	iter: 5280, training rms error:9.741653, test rms error:9.742245
	iter: 5340, training rms error:9.741653, test rms error:9.742245
	iter: 5400, training rms error:12.757901, test rms error:12.774045
	iter: 5460, training rms error:12.757901, test rms error:12.774045
	iter: 5520, training rms error:12.757901, test rms error:12.774045
	iter: 5580, training rms error:12.757901, test rms error:12.774045
	iter: 5640, training rms error:13.542990, test rms error:13.783804
	iter: 5700, training rms error:13.542990, test rms error:13.783804
	iter: 5760, training rms error:13.542990, test rms error:13.783804
	iter: 5820, training rms error:14.273376, test rms error:14.428760
	iter: 5880, training rms error:14.273376, test rms error:14.428760
	iter: 5940, training rms error:14.273376, test rms error:14.428760
	iter: 6000, training rms error:14.208435, test rms error:14.412680
***After training with batch size, K = 200***
	W1
	+0.501276 	+0.537835 
	-0.233992 	+0.727433 
	-0.833162 	-0.826050 
	-0.870956 	+0.020150 
	-1.338906 	+1.087961 
	W2
	-1.425254 	+0.594035 	-1.071200 	+1.115908 	-1.278595 	-0.815552 
	+0.413714 	-0.636687 	+0.634139 	-0.693373 	-0.864053 	+0.387854 
	-0.705620 	+0.622430 	-0.753291 	-0.034151 	+0.125291 	+0.033535 
	+0.004537 	-0.110528 	-1.409218 	+0.552005 	-1.023571 	+1.166585 
	-1.224290 	+1.062239 	-0.421919 	+0.804741 	-0.808864 	+1.047777 
	W3
	+1.375199 	+1.442498 	-0.848677 	+1.140030 	-1.158001 	+1.278061 
	rms error on training data: 14.273376
	rms error on test data: 14.428760
****Total learning steps when training stopped***
 	6000
----------BP LEARN STARTED----------
***Initial weights***
	W1
	+0.072235 	-0.097091 
	-0.018829 	-0.021464 
	+0.079681 	+0.005044 
	-0.028179 	-0.059579 
	+0.072917 	+0.036292 
	W2
	+0.014452 	+0.077713 	-0.065450 	-0.034193 	-0.015440 	-0.055523 
	-0.057373 	-0.098282 	-0.066394 	+0.057316 	-0.029989 	-0.033670 
	-0.095888 	-0.081813 	+0.097072 	+0.090545 	-0.030258 	-0.007590 
	+0.093575 	-0.041252 	+0.041706 	-0.091251 	-0.013175 	-0.072952 
	+0.039745 	+0.049212 	-0.075238 	+0.063383 	-0.075984 	-0.061332 
	W3
	+0.088564 	+0.034863 	+0.048571 	-0.050892 	-0.039072 	+0.043294 
***Learning rate***
	0.01
***Momentum Update (forgetting factor)***
	0.1
***Stopping Criteria = max. learn steps OR rms train and test error < tolerance***
	Max learning steps
	6000
	Error Tolerance
	0.1
***Initial RMS Error (training) ***
	1.824734
***Initial RMS Error (test) ***
	1.852509
***Performance indicators while running BP algorithm***
	iter: 60, training rms error:1.639656, test rms error:1.670498
	iter: 120, training rms error:1.602153, test rms error:1.633689
	iter: 180, training rms error:1.593837, test rms error:1.625522
	iter: 240, training rms error:1.596028, test rms error:1.627660
	iter: 300, training rms error:1.592207, test rms error:1.623893
	iter: 360, training rms error:1.587229, test rms error:1.618999
	iter: 420, training rms error:1.592258, test rms error:1.623916
	iter: 480, training rms error:1.586541, test rms error:1.618296
	iter: 540, training rms error:1.585115, test rms error:1.616882
	iter: 600, training rms error:1.597055, test rms error:1.628567
	iter: 660, training rms error:1.619510, test rms error:1.650570
	iter: 720, training rms error:1.582352, test rms error:1.614112
	iter: 780, training rms error:1.586947, test rms error:1.618603
	iter: 840, training rms error:1.579820, test rms error:1.611592
	iter: 900, training rms error:1.579233, test rms error:1.610996
	iter: 960, training rms error:1.577640, test rms error:1.609409
	iter: 1020, training rms error:1.587388, test rms error:1.618945
	iter: 1080, training rms error:1.575007, test rms error:1.606780
	iter: 1140, training rms error:1.573426, test rms error:1.605194
	iter: 1200, training rms error:1.572721, test rms error:1.604475
	iter: 1260, training rms error:1.570428, test rms error:1.602187
	iter: 1320, training rms error:1.571844, test rms error:1.603540
	iter: 1380, training rms error:1.566343, test rms error:1.598112
	iter: 1440, training rms error:1.566038, test rms error:1.597755
	iter: 1500, training rms error:1.568530, test rms error:1.600161
	iter: 1560, training rms error:1.558658, test rms error:1.590426
	iter: 1620, training rms error:1.566100, test rms error:1.597653
	iter: 1680, training rms error:1.552364, test rms error:1.584130
	iter: 1740, training rms error:1.551505, test rms error:1.583235
	iter: 1800, training rms error:1.545407, test rms error:1.577167
	iter: 1860, training rms error:1.559150, test rms error:1.590575
	iter: 1920, training rms error:1.538144, test rms error:1.569884
	iter: 1980, training rms error:1.535968, test rms error:1.567624
	iter: 2040, training rms error:1.533956, test rms error:1.565511
	iter: 2100, training rms error:1.518707, test rms error:1.550448
	iter: 2160, training rms error:1.512830, test rms error:1.544507
	iter: 2220, training rms error:1.505818, test rms error:1.537486
	iter: 2280, training rms error:1.496228, test rms error:1.527890
	iter: 2340, training rms error:1.491661, test rms error:1.523215
	iter: 2400, training rms error:1.490076, test rms error:1.521378
	iter: 2460, training rms error:1.460496, test rms error:1.492103
	iter: 2520, training rms error:1.449611, test rms error:1.481207
	iter: 2580, training rms error:1.429117, test rms error:1.460683
	iter: 2640, training rms error:1.410994, test rms error:1.442500
	iter: 2700, training rms error:1.385250, test rms error:1.416754
	iter: 2760, training rms error:1.366346, test rms error:1.397746
	iter: 2820, training rms error:1.335794, test rms error:1.367138
	iter: 2880, training rms error:1.303709, test rms error:1.334888
	iter: 2940, training rms error:1.274517, test rms error:1.305576
	iter: 3000, training rms error:1.238404, test rms error:1.269259
	iter: 3060, training rms error:1.191319, test rms error:1.221861
	iter: 3120, training rms error:1.166849, test rms error:1.196950
	iter: 3180, training rms error:1.117039, test rms error:1.146927
	iter: 3240, training rms error:1.081768, test rms error:1.111214
	iter: 3300, training rms error:1.029322, test rms error:1.057861
	iter: 3360, training rms error:0.994111, test rms error:1.022154
	iter: 3420, training rms error:0.949432, test rms error:0.976365
	iter: 3480, training rms error:0.911505, test rms error:0.937312
	iter: 3540, training rms error:0.918168, test rms error:0.943327
	iter: 3600, training rms error:0.866824, test rms error:0.890387
	iter: 3660, training rms error:0.844954, test rms error:0.867365
	iter: 3720, training rms error:0.831453, test rms error:0.852971
	iter: 3780, training rms error:0.820622, test rms error:0.841094
	iter: 3840, training rms error:0.815268, test rms error:0.834247
	iter: 3900, training rms error:0.802784, test rms error:0.820724
	iter: 3960, training rms error:0.811108, test rms error:0.829757
	iter: 4020, training rms error:0.799345, test rms error:0.816725
	iter: 4080, training rms error:0.798566, test rms error:0.814523
	iter: 4140, training rms error:0.794714, test rms error:0.810722
	iter: 4200, training rms error:0.795026, test rms error:0.810850
	iter: 4260, training rms error:0.794410, test rms error:0.810346
	iter: 4320, training rms error:0.800635, test rms error:0.815204
	iter: 4380, training rms error:0.792714, test rms error:0.807446
	iter: 4440, training rms error:0.794992, test rms error:0.809632
	iter: 4500, training rms error:0.801939, test rms error:0.817476
	iter: 4560, training rms error:0.796393, test rms error:0.810096
	iter: 4620, training rms error:0.793685, test rms error:0.808836
	iter: 4680, training rms error:0.793217, test rms error:0.808716
	iter: 4740, training rms error:0.792110, test rms error:0.806708
	iter: 4800, training rms error:0.792787, test rms error:0.807146
	iter: 4860, training rms error:0.800649, test rms error:0.815871
	iter: 4920, training rms error:0.797426, test rms error:0.812880
	iter: 4980, training rms error:0.795192, test rms error:0.809256
	iter: 5040, training rms error:0.794821, test rms error:0.809075
	iter: 5100, training rms error:0.791807, test rms error:0.806225
	iter: 5160, training rms error:0.791834, test rms error:0.805980
	iter: 5220, training rms error:0.794723, test rms error:0.808632
	iter: 5280, training rms error:0.791163, test rms error:0.804724
	iter: 5340, training rms error:0.791435, test rms error:0.805146
	iter: 5400, training rms error:0.791095, test rms error:0.805139
	iter: 5460, training rms error:0.792751, test rms error:0.806105
	iter: 5520, training rms error:0.792774, test rms error:0.806120
	iter: 5580, training rms error:0.798605, test rms error:0.813189
	iter: 5640, training rms error:0.792193, test rms error:0.804951
	iter: 5700, training rms error:0.791999, test rms error:0.804542
	iter: 5760, training rms error:0.790222, test rms error:0.804075
	iter: 5820, training rms error:0.805115, test rms error:0.818800
	iter: 5880, training rms error:0.791290, test rms error:0.805369
	iter: 5940, training rms error:0.791043, test rms error:0.805488
	iter: 6000, training rms error:0.797247, test rms error:0.812383
***After training with momentum, alpha = 20***
	W1
	+0.068209 	-0.112280 
	-0.020847 	-0.011746 
	+0.106146 	-0.090262 
	-0.255860 	-0.113609 
	+0.206482 	+0.320372 
	W2
	+0.010622 	+0.065635 	-0.044719 	-0.029769 	-0.023656 	-0.052509 
	-0.029673 	-0.132411 	-0.057620 	+0.083716 	-0.013728 	+0.066804 
	-0.220013 	-0.058388 	+0.190669 	+0.104089 	+0.030196 	-0.080298 
	+0.103504 	+0.014602 	+0.022924 	-0.185199 	+0.100485 	-0.091285 
	-0.047648 	+0.030703 	-0.195196 	+0.211792 	-0.105018 	-0.173467 
	W3
	-0.002907 	+0.002795 	+0.247507 	-0.326902 	+0.084191 	+0.239585 
	rms error on training data: 0.791043
	rms error on test data: 0.805488
****Total learning steps when training stopped***
 	6000
----------BP LEARN STARTED----------
***Initial weights***
	W1
	-0.008782 	-0.029067 
	-0.016675 	-0.099810 
	+0.050509 	-0.017855 
	-0.080129 	+0.024450 
	-0.062598 	-0.056016 
	W2
	-0.024444 	-0.092836 	+0.044139 	+0.062162 	-0.038127 	+0.042008 
	+0.073088 	+0.026380 	+0.000054 	-0.007691 	+0.055751 	+0.043315 
	+0.026203 	+0.082056 	+0.019839 	-0.011133 	+0.005032 	+0.078131 
	+0.069121 	+0.030439 	+0.009323 	-0.087031 	-0.010746 	+0.063403 
	-0.074952 	+0.084666 	-0.020732 	-0.047385 	-0.041224 	+0.092272 
	W3
	+0.042614 	-0.048123 	-0.007204 	+0.013021 	-0.021565 	+0.010067 
***Learning rate***
	0.01
***Momentum Update (forgetting factor)***
	0.25
***Stopping Criteria = max. learn steps OR rms train and test error < tolerance***
	Max learning steps
	6000
	Error Tolerance
	0.1
***Initial RMS Error (training) ***
	1.648805
***Initial RMS Error (test) ***
	1.679634
***Performance indicators while running BP algorithm***
	iter: 60, training rms error:1.605667, test rms error:1.637305
	iter: 120, training rms error:1.604076, test rms error:1.635732
	iter: 180, training rms error:1.606438, test rms error:1.638039
	iter: 240, training rms error:1.599115, test rms error:1.630849
	iter: 300, training rms error:1.597565, test rms error:1.629322
	iter: 360, training rms error:1.598869, test rms error:1.630593
	iter: 420, training rms error:1.618690, test rms error:1.650028
	iter: 480, training rms error:1.597839, test rms error:1.629570
	iter: 540, training rms error:1.595991, test rms error:1.627751
	iter: 600, training rms error:1.595918, test rms error:1.627674
	iter: 660, training rms error:1.596880, test rms error:1.628610
	iter: 720, training rms error:1.596291, test rms error:1.628028
	iter: 780, training rms error:1.594424, test rms error:1.626192
	iter: 840, training rms error:1.598581, test rms error:1.630265
	iter: 900, training rms error:1.596899, test rms error:1.628609
	iter: 960, training rms error:1.595155, test rms error:1.626894
	iter: 1020, training rms error:1.598038, test rms error:1.629714
	iter: 1080, training rms error:1.593750, test rms error:1.625506
	iter: 1140, training rms error:1.593805, test rms error:1.625556
	iter: 1200, training rms error:1.594885, test rms error:1.626610
	iter: 1260, training rms error:1.591975, test rms error:1.623751
	iter: 1320, training rms error:1.605378, test rms error:1.636891
	iter: 1380, training rms error:1.608948, test rms error:1.640385
	iter: 1440, training rms error:1.595413, test rms error:1.627109
	iter: 1500, training rms error:1.604525, test rms error:1.636039
	iter: 1560, training rms error:1.593319, test rms error:1.625048
	iter: 1620, training rms error:1.616359, test rms error:1.647636
	iter: 1680, training rms error:1.626118, test rms error:1.657203
	iter: 1740, training rms error:1.590395, test rms error:1.622162
	iter: 1800, training rms error:1.594858, test rms error:1.626534
	iter: 1860, training rms error:1.589353, test rms error:1.621130
	iter: 1920, training rms error:1.595381, test rms error:1.627036
	iter: 1980, training rms error:1.589763, test rms error:1.621522
	iter: 2040, training rms error:1.593147, test rms error:1.624832
	iter: 2100, training rms error:1.594827, test rms error:1.626473
	iter: 2160, training rms error:1.588366, test rms error:1.620132
	iter: 2220, training rms error:1.588243, test rms error:1.620004
	iter: 2280, training rms error:1.587255, test rms error:1.619027
	iter: 2340, training rms error:1.589617, test rms error:1.621334
	iter: 2400, training rms error:1.588547, test rms error:1.620279
	iter: 2460, training rms error:1.597538, test rms error:1.629083
	iter: 2520, training rms error:1.586406, test rms error:1.618161
	iter: 2580, training rms error:1.616556, test rms error:1.647725
	iter: 2640, training rms error:1.584370, test rms error:1.616145
	iter: 2700, training rms error:1.583992, test rms error:1.615765
	iter: 2760, training rms error:1.584006, test rms error:1.615765
	iter: 2820, training rms error:1.587552, test rms error:1.619230
	iter: 2880, training rms error:1.585978, test rms error:1.617672
	iter: 2940, training rms error:1.593779, test rms error:1.625304
	iter: 3000, training rms error:1.602570, test rms error:1.633917
	iter: 3060, training rms error:1.580691, test rms error:1.612444
	iter: 3120, training rms error:1.582074, test rms error:1.613781
	iter: 3180, training rms error:1.578384, test rms error:1.610145
	iter: 3240, training rms error:1.578539, test rms error:1.610276
	iter: 3300, training rms error:1.586284, test rms error:1.617843
	iter: 3360, training rms error:1.583212, test rms error:1.614808
	iter: 3420, training rms error:1.575670, test rms error:1.607390
	iter: 3480, training rms error:1.571818, test rms error:1.603584
	iter: 3540, training rms error:1.572837, test rms error:1.604548
	iter: 3600, training rms error:1.568475, test rms error:1.600237
	iter: 3660, training rms error:1.570260, test rms error:1.601946
	iter: 3720, training rms error:1.569133, test rms error:1.600796
	iter: 3780, training rms error:1.561732, test rms error:1.593497
	iter: 3840, training rms error:1.580929, test rms error:1.612253
	iter: 3900, training rms error:1.561050, test rms error:1.592713
	iter: 3960, training rms error:1.559244, test rms error:1.590879
	iter: 4020, training rms error:1.550125, test rms error:1.581870
	iter: 4080, training rms error:1.546498, test rms error:1.578252
	iter: 4140, training rms error:1.557575, test rms error:1.589034
	iter: 4200, training rms error:1.560467, test rms error:1.591718
	iter: 4260, training rms error:1.531054, test rms error:1.562801
	iter: 4320, training rms error:1.540959, test rms error:1.572332
	iter: 4380, training rms error:1.519766, test rms error:1.551394
	iter: 4440, training rms error:1.510249, test rms error:1.541905
	iter: 4500, training rms error:1.503642, test rms error:1.535292
	iter: 4560, training rms error:1.504969, test rms error:1.536340
	iter: 4620, training rms error:1.483454, test rms error:1.514911
	iter: 4680, training rms error:1.459370, test rms error:1.491011
	iter: 4740, training rms error:1.444159, test rms error:1.475772
	iter: 4800, training rms error:1.426047, test rms error:1.457635
	iter: 4860, training rms error:1.404737, test rms error:1.436253
	iter: 4920, training rms error:1.389035, test rms error:1.420382
	iter: 4980, training rms error:1.353509, test rms error:1.384881
	iter: 5040, training rms error:1.324041, test rms error:1.355244
	iter: 5100, training rms error:1.283894, test rms error:1.314975
	iter: 5160, training rms error:1.254313, test rms error:1.285099
	iter: 5220, training rms error:1.206637, test rms error:1.237134
	iter: 5280, training rms error:1.159239, test rms error:1.188977
	iter: 5340, training rms error:1.102881, test rms error:1.132468
	iter: 5400, training rms error:1.091742, test rms error:1.120473
	iter: 5460, training rms error:1.022669, test rms error:1.051033
	iter: 5520, training rms error:0.980654, test rms error:1.008207
	iter: 5580, training rms error:0.943800, test rms error:0.970402
	iter: 5640, training rms error:0.903956, test rms error:0.929169
	iter: 5700, training rms error:0.877951, test rms error:0.901900
	iter: 5760, training rms error:0.853528, test rms error:0.876169
	iter: 5820, training rms error:0.839059, test rms error:0.859759
	iter: 5880, training rms error:0.835698, test rms error:0.856332
	iter: 5940, training rms error:0.830521, test rms error:0.850853
	iter: 6000, training rms error:0.814787, test rms error:0.832541
***After training with momentum, alpha = 20***
	W1
	-0.008429 	-0.030734 
	-0.016944 	-0.099585 
	+0.042704 	+0.011462 
	-0.269710 	+0.018466 
	-0.198837 	-0.335980 
	W2
	-0.020615 	-0.089549 	+0.041343 	+0.061888 	-0.036282 	+0.037530 
	+0.073633 	+0.027630 	-0.002057 	-0.008141 	+0.186239 	-0.047586 
	-0.020666 	+0.161078 	+0.131367 	-0.024255 	+0.016817 	+0.083292 
	+0.060522 	+0.015644 	+0.107237 	-0.156344 	-0.045877 	+0.123095 
	+0.009583 	+0.241161 	-0.123616 	-0.102897 	+0.051954 	+0.218532 
	W3
	+0.006829 	+0.310354 	-0.180802 	-0.104593 	+0.175912 	+0.223045 
	rms error on training data: 0.830521
	rms error on test data: 0.850853
****Total learning steps when training stopped***
 	6000
----------BP LEARN STARTED----------
***Initial weights***
	W1
	+0.031167 	+0.037891 
	+0.013356 	-0.086621 
	-0.043055 	+0.003180 
	-0.061529 	+0.006569 
	+0.096666 	-0.067532 
	W2
	+0.076216 	+0.054259 	-0.029005 	-0.037660 	+0.049738 	+0.075128 
	-0.072532 	+0.015920 	+0.083950 	+0.056040 	-0.094694 	+0.041595 
	+0.078074 	-0.085804 	+0.077037 	+0.083126 	-0.093541 	+0.051576 
	-0.016583 	-0.090079 	+0.090800 	+0.068397 	+0.058831 	+0.059406 
	+0.088434 	-0.088359 	+0.000012 	-0.093849 	-0.075899 	-0.018571 
	W3
	-0.066419 	-0.055667 	-0.080323 	+0.060990 	+0.055783 	-0.046555 
***Learning rate***
	0.01
***Momentum Update (forgetting factor)***
	0.5
***Stopping Criteria = max. learn steps OR rms train and test error < tolerance***
	Max learning steps
	6000
	Error Tolerance
	0.1
***Initial RMS Error (training) ***
	1.759566
***Initial RMS Error (test) ***
	1.788310
***Performance indicators while running BP algorithm***
	iter: 60, training rms error:1.607660, test rms error:1.639034
	iter: 120, training rms error:1.583669, test rms error:1.615444
	iter: 180, training rms error:1.581171, test rms error:1.612934
	iter: 240, training rms error:1.577133, test rms error:1.608906
	iter: 300, training rms error:1.592220, test rms error:1.623635
	iter: 360, training rms error:1.571479, test rms error:1.603243
	iter: 420, training rms error:1.598284, test rms error:1.629444
	iter: 480, training rms error:1.562265, test rms error:1.594031
	iter: 540, training rms error:1.557502, test rms error:1.589268
	iter: 600, training rms error:1.552669, test rms error:1.584423
	iter: 660, training rms error:1.549011, test rms error:1.580721
	iter: 720, training rms error:1.539432, test rms error:1.571185
	iter: 780, training rms error:1.534872, test rms error:1.566554
	iter: 840, training rms error:1.522768, test rms error:1.554508
	iter: 900, training rms error:1.525924, test rms error:1.557368
	iter: 960, training rms error:1.501552, test rms error:1.533201
	iter: 1020, training rms error:1.498214, test rms error:1.529679
	iter: 1080, training rms error:1.488144, test rms error:1.519521
	iter: 1140, training rms error:1.488374, test rms error:1.519403
	iter: 1200, training rms error:1.468957, test rms error:1.499784
	iter: 1260, training rms error:1.469054, test rms error:1.499075
	iter: 1320, training rms error:1.366971, test rms error:1.398358
	iter: 1380, training rms error:1.379048, test rms error:1.409512
	iter: 1440, training rms error:1.323673, test rms error:1.354529
	iter: 1500, training rms error:1.273604, test rms error:1.304529
	iter: 1560, training rms error:1.242716, test rms error:1.272689
	iter: 1620, training rms error:1.156692, test rms error:1.186770
	iter: 1680, training rms error:1.093150, test rms error:1.122478
	iter: 1740, training rms error:1.047776, test rms error:1.076414
	iter: 1800, training rms error:0.988693, test rms error:1.016265
	iter: 1860, training rms error:0.941634, test rms error:0.966410
	iter: 1920, training rms error:0.902458, test rms error:0.926974
	iter: 1980, training rms error:0.870497, test rms error:0.893906
	iter: 2040, training rms error:0.853500, test rms error:0.874758
	iter: 2100, training rms error:0.837507, test rms error:0.858165
	iter: 2160, training rms error:0.821489, test rms error:0.840670
	iter: 2220, training rms error:0.822587, test rms error:0.840009
	iter: 2280, training rms error:0.809606, test rms error:0.826052
	iter: 2340, training rms error:0.809303, test rms error:0.825684
	iter: 2400, training rms error:0.812433, test rms error:0.829137
	iter: 2460, training rms error:0.818454, test rms error:0.835934
	iter: 2520, training rms error:0.815473, test rms error:0.832814
	iter: 2580, training rms error:0.816265, test rms error:0.831325
	iter: 2640, training rms error:0.812806, test rms error:0.828653
	iter: 2700, training rms error:0.816919, test rms error:0.830931
	iter: 2760, training rms error:0.811292, test rms error:0.825404
	iter: 2820, training rms error:0.805510, test rms error:0.820515
	iter: 2880, training rms error:0.806340, test rms error:0.819844
	iter: 2940, training rms error:0.805257, test rms error:0.819043
	iter: 3000, training rms error:0.803823, test rms error:0.818713
	iter: 3060, training rms error:0.805000, test rms error:0.820687
	iter: 3120, training rms error:0.808951, test rms error:0.824940
	iter: 3180, training rms error:0.808059, test rms error:0.824783
	iter: 3240, training rms error:0.807158, test rms error:0.822357
	iter: 3300, training rms error:0.813947, test rms error:0.831155
	iter: 3360, training rms error:0.805790, test rms error:0.820260
	iter: 3420, training rms error:0.820329, test rms error:0.833080
	iter: 3480, training rms error:0.805285, test rms error:0.818913
	iter: 3540, training rms error:0.802043, test rms error:0.815797
	iter: 3600, training rms error:0.802516, test rms error:0.817098
	iter: 3660, training rms error:0.805560, test rms error:0.819421
	iter: 3720, training rms error:0.810520, test rms error:0.826252
	iter: 3780, training rms error:0.802805, test rms error:0.817451
	iter: 3840, training rms error:0.808262, test rms error:0.824240
	iter: 3900, training rms error:0.806063, test rms error:0.823595
	iter: 3960, training rms error:0.823010, test rms error:0.837845
	iter: 4020, training rms error:0.800173, test rms error:0.813900
	iter: 4080, training rms error:0.800238, test rms error:0.813919
	iter: 4140, training rms error:0.799634, test rms error:0.813430
	iter: 4200, training rms error:0.798997, test rms error:0.814121
	iter: 4260, training rms error:0.799391, test rms error:0.815060
	iter: 4320, training rms error:0.801306, test rms error:0.817833
	iter: 4380, training rms error:0.798197, test rms error:0.812709
	iter: 4440, training rms error:0.799269, test rms error:0.813772
	iter: 4500, training rms error:0.802382, test rms error:0.816713
	iter: 4560, training rms error:0.797685, test rms error:0.812878
	iter: 4620, training rms error:0.797390, test rms error:0.812048
	iter: 4680, training rms error:0.805602, test rms error:0.820544
	iter: 4740, training rms error:0.822369, test rms error:0.838200
	iter: 4800, training rms error:0.796751, test rms error:0.811183
	iter: 4860, training rms error:0.808128, test rms error:0.824090
	iter: 4920, training rms error:0.798023, test rms error:0.814472
	iter: 4980, training rms error:0.804876, test rms error:0.819603
	iter: 5040, training rms error:0.797606, test rms error:0.810891
	iter: 5100, training rms error:0.802539, test rms error:0.817182
	iter: 5160, training rms error:0.803633, test rms error:0.817815
	iter: 5220, training rms error:0.821084, test rms error:0.833790
	iter: 5280, training rms error:0.795318, test rms error:0.809582
	iter: 5340, training rms error:0.798157, test rms error:0.812881
	iter: 5400, training rms error:0.795555, test rms error:0.810894
	iter: 5460, training rms error:0.795821, test rms error:0.810181
	iter: 5520, training rms error:0.795228, test rms error:0.810032
	iter: 5580, training rms error:0.799409, test rms error:0.815232
	iter: 5640, training rms error:0.795708, test rms error:0.811455
	iter: 5700, training rms error:0.794396, test rms error:0.809939
	iter: 5760, training rms error:0.793982, test rms error:0.807830
	iter: 5820, training rms error:0.795032, test rms error:0.810355
	iter: 5880, training rms error:0.794174, test rms error:0.810399
	iter: 5940, training rms error:0.792841, test rms error:0.807310
	iter: 6000, training rms error:0.792629, test rms error:0.807224
***After training with momentum, alpha = 20***
	W1
	+0.034563 	+0.023554 
	+0.015567 	+0.008227 
	-0.066086 	+0.058899 
	-0.174097 	-0.063992 
	+0.369570 	-0.227835 
	W2
	+0.094354 	+0.045077 	-0.021568 	-0.033122 	+0.042693 	+0.094305 
	-0.060916 	+0.014256 	+0.088232 	+0.065157 	-0.191894 	-0.030426 
	+0.098506 	-0.096587 	+0.024297 	+0.052700 	-0.114580 	+0.055963 
	-0.022399 	-0.106128 	+0.290377 	+0.214247 	+0.018858 	+0.083486 
	+0.195683 	-0.207849 	-0.084990 	-0.071451 	-0.091262 	-0.081337 
	W3
	+0.062971 	-0.364659 	-0.231263 	+0.022293 	-0.111607 	-0.188663 
	rms error on training data: 0.792841
	rms error on test data: 0.807310
****Total learning steps when training stopped***
 	6000
----------BP LEARN STARTED----------
***Initial weights***
	W1
	-0.007505 	-0.049951 
	+0.088186 	-0.041546 
	-0.032106 	+0.034813 
	+0.002006 	-0.019433 
	+0.038028 	-0.002021 
	W2
	-0.041593 	-0.082744 	-0.057717 	+0.010484 	-0.025841 	-0.075374 
	+0.076162 	-0.002935 	-0.071702 	-0.067339 	-0.021656 	-0.016379 
	-0.018008 	-0.054712 	+0.041758 	-0.087452 	+0.018429 	-0.061895 
	-0.026475 	+0.078840 	+0.044505 	+0.089521 	+0.055487 	-0.072045 
	+0.020691 	+0.009470 	+0.005046 	+0.086889 	-0.067082 	-0.046351 
	W3
	+0.077501 	-0.080172 	+0.022120 	+0.069081 	-0.048147 	-0.023569 
***Learning rate***
	0.01
***Momentum Update (forgetting factor)***
	0.75
***Stopping Criteria = max. learn steps OR rms train and test error < tolerance***
	Max learning steps
	6000
	Error Tolerance
	0.1
***Initial RMS Error (training) ***
	1.738069
***Initial RMS Error (test) ***
	1.767322
***Performance indicators while running BP algorithm***
	iter: 60, training rms error:1.600789, test rms error:1.632501
	iter: 120, training rms error:1.643534, test rms error:1.674404
	iter: 180, training rms error:1.599485, test rms error:1.631176
	iter: 240, training rms error:1.619735, test rms error:1.651026
	iter: 300, training rms error:1.594214, test rms error:1.625974
	iter: 360, training rms error:1.634224, test rms error:1.665197
	iter: 420, training rms error:1.629893, test rms error:1.660942
	iter: 480, training rms error:1.619825, test rms error:1.651037
	iter: 540, training rms error:1.593240, test rms error:1.624949
	iter: 600, training rms error:1.618942, test rms error:1.650148
	iter: 660, training rms error:1.600873, test rms error:1.632410
	iter: 720, training rms error:1.588410, test rms error:1.620176
	iter: 780, training rms error:1.604753, test rms error:1.636181
	iter: 840, training rms error:1.586110, test rms error:1.617882
	iter: 900, training rms error:1.609567, test rms error:1.640862
	iter: 960, training rms error:1.595108, test rms error:1.626666
	iter: 1020, training rms error:1.583168, test rms error:1.614937
	iter: 1080, training rms error:1.625356, test rms error:1.656300
	iter: 1140, training rms error:1.582220, test rms error:1.613969
	iter: 1200, training rms error:1.621134, test rms error:1.652100
	iter: 1260, training rms error:1.592041, test rms error:1.623530
	iter: 1320, training rms error:1.579222, test rms error:1.610922
	iter: 1380, training rms error:1.584674, test rms error:1.616228
	iter: 1440, training rms error:1.591193, test rms error:1.622584
	iter: 1500, training rms error:1.574043, test rms error:1.605724
	iter: 1560, training rms error:1.566974, test rms error:1.598740
	iter: 1620, training rms error:1.565290, test rms error:1.597013
	iter: 1680, training rms error:1.588088, test rms error:1.619297
	iter: 1740, training rms error:1.557728, test rms error:1.589453
	iter: 1800, training rms error:1.570201, test rms error:1.601563
	iter: 1860, training rms error:1.544527, test rms error:1.576289
	iter: 1920, training rms error:1.550547, test rms error:1.582065
	iter: 1980, training rms error:1.542510, test rms error:1.574001
	iter: 2040, training rms error:1.519746, test rms error:1.551447
	iter: 2100, training rms error:1.507884, test rms error:1.539599
	iter: 2160, training rms error:1.494231, test rms error:1.525918
	iter: 2220, training rms error:1.476093, test rms error:1.507752
	iter: 2280, training rms error:1.457548, test rms error:1.489086
	iter: 2340, training rms error:1.468772, test rms error:1.499370
	iter: 2400, training rms error:1.435974, test rms error:1.466767
	iter: 2460, training rms error:1.370852, test rms error:1.402304
	iter: 2520, training rms error:1.357756, test rms error:1.388537
	iter: 2580, training rms error:1.283371, test rms error:1.314435
	iter: 2640, training rms error:1.229359, test rms error:1.259685
	iter: 2700, training rms error:1.158817, test rms error:1.189046
	iter: 2760, training rms error:1.087588, test rms error:1.116989
	iter: 2820, training rms error:1.033281, test rms error:1.061622
	iter: 2880, training rms error:0.973155, test rms error:0.998311
	iter: 2940, training rms error:0.886172, test rms error:0.910608
	iter: 3000, training rms error:0.885908, test rms error:0.909630
	iter: 3060, training rms error:0.837669, test rms error:0.858626
	iter: 3120, training rms error:0.826064, test rms error:0.846384
	iter: 3180, training rms error:0.813379, test rms error:0.832149
	iter: 3240, training rms error:0.807287, test rms error:0.824903
	iter: 3300, training rms error:0.808827, test rms error:0.825233
	iter: 3360, training rms error:0.803169, test rms error:0.818556
	iter: 3420, training rms error:0.809872, test rms error:0.826540
	iter: 3480, training rms error:0.811148, test rms error:0.827620
	iter: 3540, training rms error:0.806742, test rms error:0.821284
	iter: 3600, training rms error:0.799994, test rms error:0.814498
	iter: 3660, training rms error:0.800842, test rms error:0.813750
	iter: 3720, training rms error:0.800311, test rms error:0.812415
	iter: 3780, training rms error:0.800890, test rms error:0.815557
	iter: 3840, training rms error:0.801597, test rms error:0.817000
	iter: 3900, training rms error:0.798522, test rms error:0.812124
	iter: 3960, training rms error:0.802718, test rms error:0.818105
	iter: 4020, training rms error:0.797611, test rms error:0.812461
	iter: 4080, training rms error:0.803476, test rms error:0.817491
	iter: 4140, training rms error:0.797177, test rms error:0.811016
	iter: 4200, training rms error:0.796836, test rms error:0.810953
	iter: 4260, training rms error:0.799873, test rms error:0.815790
	iter: 4320, training rms error:0.801841, test rms error:0.815575
	iter: 4380, training rms error:0.798795, test rms error:0.812360
	iter: 4440, training rms error:0.798342, test rms error:0.812476
	iter: 4500, training rms error:0.799309, test rms error:0.812325
	iter: 4560, training rms error:0.809187, test rms error:0.821454
	iter: 4620, training rms error:0.800270, test rms error:0.815283
	iter: 4680, training rms error:0.796081, test rms error:0.811047
	iter: 4740, training rms error:0.795726, test rms error:0.810204
	iter: 4800, training rms error:0.795332, test rms error:0.809917
	iter: 4860, training rms error:0.796855, test rms error:0.811871
	iter: 4920, training rms error:0.794986, test rms error:0.809374
	iter: 4980, training rms error:0.795220, test rms error:0.808594
	iter: 5040, training rms error:0.796679, test rms error:0.811504
	iter: 5100, training rms error:0.798826, test rms error:0.812649
	iter: 5160, training rms error:0.799765, test rms error:0.814561
	iter: 5220, training rms error:0.794166, test rms error:0.808488
	iter: 5280, training rms error:0.801776, test rms error:0.817394
	iter: 5340, training rms error:0.806675, test rms error:0.821338
	iter: 5400, training rms error:0.798244, test rms error:0.812003
	iter: 5460, training rms error:0.817435, test rms error:0.828568
	iter: 5520, training rms error:0.800503, test rms error:0.813254
	iter: 5580, training rms error:0.808852, test rms error:0.823524
	iter: 5640, training rms error:0.809335, test rms error:0.824861
	iter: 5700, training rms error:0.804300, test rms error:0.820966
	iter: 5760, training rms error:0.796899, test rms error:0.811392
	iter: 5820, training rms error:0.795942, test rms error:0.809878
	iter: 5880, training rms error:0.793504, test rms error:0.808623
	iter: 5940, training rms error:0.794317, test rms error:0.807624
	iter: 6000, training rms error:0.794259, test rms error:0.809599
***After training with momentum, alpha = 20***
	W1
	-0.046716 	-0.052941 
	+0.070494 	-0.040640 
	-0.081503 	-0.280894 
	-0.077257 	-0.186454 
	-0.021914 	-0.323337 
	W2
	-0.016619 	-0.078486 	-0.058766 	+0.023645 	-0.024543 	-0.201168 
	+0.116319 	+0.080818 	-0.175413 	-0.098516 	-0.059354 	-0.005080 
	+0.006722 	-0.084936 	+0.032688 	-0.192406 	+0.051603 	+0.012820 
	-0.108906 	+0.052916 	+0.055829 	+0.086747 	+0.044722 	-0.066541 
	+0.023206 	-0.163710 	+0.058160 	+0.204956 	-0.204216 	-0.088472 
	W3
	+0.035887 	-0.318412 	+0.112013 	+0.196444 	-0.278580 	-0.085380 
	rms error on training data: 0.794317
	rms error on test data: 0.807624
****Total learning steps when training stopped***
 	6000
