EDU>> prob2
***Initial weights***
	W1
	-0.012765 	+0.001956 
	-0.017925 	+0.091135 
	+0.034278 	-0.061840 
	-0.071461 	+0.026279 
	-0.094933 	+0.036458 
	W2
	+0.055513 	-0.061664 	+0.009607 	+0.092518 	-0.054166 	-0.030624 
	+0.017164 	-0.019810 	-0.062191 	-0.044610 	-0.022631 	-0.021514 
	+0.071892 	+0.002261 	+0.035125 	-0.087015 	-0.089690 	-0.072993 
	+0.050787 	+0.006871 	-0.071699 	+0.031203 	+0.064933 	-0.038629 
	-0.020106 	-0.023230 	+0.010519 	-0.037737 	+0.026836 	+0.020403 
***Learning rate***
	0.01
***Stopping Criteria***
	Max learning epochs
	3000
	Error Tolerance
	0.1
***Initial RMS Error***
	1.964812
***Performance indicators while running BP algorithm***
	iter: 60000, rms error:0.695578
	iter: 120000, rms error:0.315182
	iter: 180000, rms error:0.215539
	iter: 240000, rms error:0.162048
	iter: 300000, rms error:0.138709
	iter: 360000, rms error:0.126164
	iter: 420000, rms error:0.117720
	iter: 480000, rms error:0.110850
	iter: 540000, rms error:0.104389
***After Training***
	W1
	-1.674954 	-0.218209 
	+0.414667 	-0.569910 
	+0.633704 	-0.987050 
	-0.263882 	+0.386607 
	-0.442202 	+0.489225 
	W2
	+0.260486 	-0.220497 	+0.093266 	+0.771134 	+0.076500 	-0.069576 
	+0.062477 	+0.016578 	-1.651746 	-0.319999 	+0.002056 	-0.044620 
	+0.100293 	-0.307465 	-0.049732 	-0.115996 	-0.064549 	-0.108743 
	+0.511058 	+0.098508 	-0.033479 	+0.004347 	+0.118568 	-0.660878 
	-0.151455 	-0.048789 	+0.027334 	-0.085711 	+0.703926 	+0.148825 
	rms error on training data: 0.110850
	rms error on test data: 0.116344
****Total iterations***
 	587400